<?xml version="1.0" encoding="UTF-8" standalone="no"?>
<!-- Created with Inkscape (http://www.inkscape.org/) -->

<svg
   xmlns:osb="http://www.openswatchbook.org/uri/2009/osb"
   xmlns:dc="http://purl.org/dc/elements/1.1/"
   xmlns:cc="http://creativecommons.org/ns#"
   xmlns:rdf="http://www.w3.org/1999/02/22-rdf-syntax-ns#"
   xmlns:svg="http://www.w3.org/2000/svg"
   xmlns="http://www.w3.org/2000/svg"
   xmlns:xlink="http://www.w3.org/1999/xlink"
   xmlns:sodipodi="http://sodipodi.sourceforge.net/DTD/sodipodi-0.dtd"
   xmlns:inkscape="http://www.inkscape.org/namespaces/inkscape"
   width="210mm"
   height="297mm"
   viewBox="0 0 210 297"
   version="1.1"
   id="svg8"
   inkscape:version="0.92.2 (5c3e80d, 2017-08-06)"
   sodipodi:docname="lava.svg">
  <defs
     id="defs2">
    <linearGradient
       inkscape:collect="always"
       id="linearGradient8301">
      <stop
         style="stop-color:#fcea4a;stop-opacity:1;"
         offset="0"
         id="stop8297" />
      <stop
         style="stop-color:#fcea4a;stop-opacity:0;"
         offset="1"
         id="stop8299" />
    </linearGradient>
    <linearGradient
       inkscape:collect="always"
       id="linearGradient8200">
      <stop
         style="stop-color:#fc4a4a;stop-opacity:1;"
         offset="0"
         id="stop8196" />
      <stop
         style="stop-color:#fc4a4a;stop-opacity:0;"
         offset="1"
         id="stop8198" />
    </linearGradient>
    <linearGradient
       id="linearGradient2283"
       osb:paint="solid">
      <stop
         style="stop-color:#b8da74;stop-opacity:1;"
         offset="0"
         id="stop2281" />
    </linearGradient>
    <linearGradient
       inkscape:collect="always"
       xlink:href="#linearGradient8200"
       id="linearGradient8204"
       x1="20.802969"
       y1="46.640724"
       x2="21.72901"
       y2="19.388641"
       gradientUnits="userSpaceOnUse"
       gradientTransform="translate(1.7197911,-5.953125)" />
    <radialGradient
       inkscape:collect="always"
       xlink:href="#linearGradient8301"
       id="radialGradient8305"
       cx="99.51651"
       cy="24.944889"
       fx="99.51651"
       fy="24.944889"
       r="16.933331"
       gradientUnits="userSpaceOnUse" />
  </defs>
  <sodipodi:namedview
     id="base"
     pagecolor="#ffffff"
     bordercolor="#666666"
     borderopacity="1.0"
     inkscape:pageopacity="0.0"
     inkscape:pageshadow="2"
     inkscape:zoom="2"
     inkscape:cx="227.02648"
     inkscape:cy="842.16897"
     inkscape:document-units="mm"
     inkscape:current-layer="layer1"
     showgrid="false"
     inkscape:window-width="1920"
     inkscape:window-height="1137"
     inkscape:window-x="-8"
     inkscape:window-y="-8"
     inkscape:window-maximized="1"
     showguides="false"
     inkscape:snap-global="false"
     inkscape:measure-start="0,0"
     inkscape:measure-end="0,0" />
  <metadata
     id="metadata5">
    <rdf:RDF>
      <cc:Work
         rdf:about="">
        <dc:format>image/svg+xml</dc:format>
        <dc:type
           rdf:resource="http://purl.org/dc/dcmitype/StillImage" />
        <dc:title></dc:title>
      </cc:Work>
    </rdf:RDF>
  </metadata>
  <g
     inkscape:label="Layer 1"
     inkscape:groupmode="layer"
     id="layer1">
    <path
       sodipodi:nodetypes="sssssssss"
       inkscape:connector-curvature="0"
       id="path2817"
       d="m 79.330265,60.567426 -1.674318,-0.580854 c -0.8044,-0.27906 -1.38785,-0.369569 -1.90542,-1.045624 l -0.68778,-0.898385 c -0.51756,-0.676056 0.22825,-1.66703 1.04563,-1.905416 l 1.84424,-0.537888 c 0.817378,-0.238388 1.693698,0.220942 1.905418,1.045624 l 0.51785,2.017113 c 0.21172,0.82468 -0.24123,2.184471 -1.04562,1.905415 z"
       style="opacity:1;fill:#815b23;fill-opacity:1;stroke:none;stroke-width:0.1023823" />
    <path
       style="opacity:1;fill:#87b330;fill-opacity:1;stroke:none;stroke-width:0.26458332"
       d="m 114.94027,54.802749 h 33.86666 v 8.466667 c -10.62694,1.001079 -22.57777,4.751113 -33.86666,0 z"
       id="path2829"
       inkscape:connector-curvature="0"
       sodipodi:nodetypes="ccccc" />
    <g
       id="g2835"
       transform="matrix(0.20198962,-0.64093868,0.61243263,0.21139135,122.88346,102.92206)">
      <path
         sodipodi:nodetypes="cccsc"
         inkscape:connector-curvature="0"
         id="path2831"
         d="m 103.98162,20.901985 -8.1578,5.758225 1.9507,-9.587336 c 0,0 1.91171,-3.357824 4.98418,-1.212681 3.07247,2.145142 1.22292,5.041792 1.22292,5.041792 z"
         style="opacity:1;fill:#87b330;fill-opacity:1;stroke:none;stroke-width:0.26458332" />
      <path
         style="opacity:1;fill:#b0d766;fill-opacity:1;stroke:none;stroke-width:0.15604219"
         d="m 103.29012,19.030332 -4.7478,3.441348 1.1353,-5.72978 c 0,0 1.11261,-2.006771 2.90077,-0.724747 1.78816,1.282024 0.71173,3.013179 0.71173,3.013179 z"
         id="path2833"
         inkscape:connector-curvature="0"
         sodipodi:nodetypes="cccsc" />
    </g>
    <path
       sodipodi:nodetypes="cccsc"
       inkscape:connector-curvature="0"
       id="path2839"
       d="m 143.33111,40.819953 4.30546,2.059913 -4.38299,1.506348 c 0,0 -1.82928,0.0063 -1.68889,-1.819828 0.14039,-1.826081 1.76642,-1.746433 1.76642,-1.746433 z"
       style="opacity:1;fill:#87b330;fill-opacity:1;stroke:none;stroke-width:0.12733753" />
    <g
       id="g2847"
       transform="translate(3.2198799,48.05574)">
      <path
         style="opacity:1;fill:#87b330;fill-opacity:1;stroke:none;stroke-width:0.26458332"
         d="m 103.98162,20.901985 -8.1578,5.758225 1.9507,-9.587336 c 0,0 1.91171,-3.357824 4.98418,-1.212681 3.07247,2.145142 1.22292,5.041792 1.22292,5.041792 z"
         id="path2843"
         inkscape:connector-curvature="0"
         sodipodi:nodetypes="cccsc" />
      <path
         sodipodi:nodetypes="cccsc"
         inkscape:connector-curvature="0"
         id="path2845"
         d="m 103.29012,19.030332 -4.7478,3.441348 1.1353,-5.72978 c 0,0 1.11261,-2.006771 2.90077,-0.724747 1.78816,1.282024 0.71173,3.013179 0.71173,3.013179 z"
         style="opacity:1;fill:#b0d766;fill-opacity:1;stroke:none;stroke-width:0.15604219" />
    </g>
    <g
       transform="matrix(0.4808192,-0.54960064,0.54096374,0.48849585,50.90183,101.84727)"
       id="g2853">
      <path
         sodipodi:nodetypes="cccsc"
         inkscape:connector-curvature="0"
         id="path2849"
         d="m 103.98162,20.901985 -8.1578,5.758225 1.9507,-9.587336 c 0,0 1.91171,-3.357824 4.98418,-1.212681 3.07247,2.145142 1.22292,5.041792 1.22292,5.041792 z"
         style="opacity:1;fill:#87b330;fill-opacity:1;stroke:none;stroke-width:0.26458332" />
      <path
         style="opacity:1;fill:#b0d766;fill-opacity:1;stroke:none;stroke-width:0.15604219"
         d="m 103.29012,19.030332 -4.7478,3.441348 1.1353,-5.72978 c 0,0 1.11261,-2.006771 2.90077,-0.724747 1.78816,1.282024 0.71173,3.013179 0.71173,3.013179 z"
         id="path2851"
         inkscape:connector-curvature="0"
         sodipodi:nodetypes="cccsc" />
    </g>
    <path
       sodipodi:nodetypes="cccsc"
       inkscape:connector-curvature="0"
       id="path2855"
       d="m 142.6746,41.56907 2.54256,1.176926 -2.61215,0.913205 c 0,0 -1.08608,0.01643 -0.99067,-1.054513 0.0954,-1.07094 1.06026,-1.035618 1.06026,-1.035618 z"
       style="opacity:1;fill:#b0d766;fill-opacity:1;stroke:none;stroke-width:0.07509932" />
    <path
       style="opacity:1;fill:#c28935;fill-opacity:1;stroke:none;stroke-width:0.1023823"
       d="m 79.413015,59.90548 -1.674324,-0.580854 c -0.8044,-0.27906 -1.38785,-0.369569 -1.90542,-1.045624 l -0.68778,-0.898385 c -0.51756,-0.676056 0.22825,-1.66703 1.04563,-1.905416 l 1.84424,-0.537888 c 0.817384,-0.238388 1.693704,0.220942 1.905424,1.045624 l 0.51785,2.017113 c 0.21172,0.82468 -0.24123,2.184471 -1.04562,1.905415 z"
       id="path2863"
       inkscape:connector-curvature="0"
       sodipodi:nodetypes="sssssssss" />
    <path
       sodipodi:nodetypes="sssssssss"
       inkscape:connector-curvature="0"
       id="path2865"
       d="m 83.201566,74.011332 -2.95228,0.186958 c -1.41835,0.08982 -2.3749,0.327563 -3.60798,-0.380438 l -1.63859,-0.940838 c -1.23308,-0.708001 -0.72466,-2.718806 0.37968,-3.615118 l 2.49172,-2.02239 c 1.10417,-0.896513 2.74978,-0.754604 3.60799,0.380438 l 2.09912,2.776235 c 0.85822,1.135044 1.03867,3.525299 -0.37969,3.615118 z"
       style="opacity:1;fill:#815b23;fill-opacity:1;stroke:none;stroke-width:0.17106384" />
    <path
       style="opacity:1;fill:#c28935;fill-opacity:1;stroke:none;stroke-width:0.17106384"
       d="m 83.036086,73.101154 -2.95229,0.186958 c -1.41835,0.08982 -2.37489,0.327563 -3.60797,-0.380438 l -1.63859,-0.940838 c -1.23308,-0.708001 -0.72466,-2.718806 0.37968,-3.615118 l 2.49172,-2.02239 c 1.10416,-0.896513 2.74978,-0.754604 3.60799,0.380438 l 2.09912,2.776235 c 0.85822,1.135044 1.03866,3.525299 -0.37969,3.615118 z"
       id="path2867"
       inkscape:connector-curvature="0"
       sodipodi:nodetypes="sssssssss" />
    <path
       sodipodi:nodetypes="cssssssscc"
       inkscape:connector-curvature="0"
       id="path2875"
       d="m 79.334315,58.87616 -0.49256,-1.79115 c -0.13803,-0.501936 -0.906712,-0.862806 -1.628366,-0.388865 l -1.05873,0.695313 c -0.435118,0.285761 0.139553,-1.019232 0.639304,-1.164982 l 1.127579,-0.328868 c 0.499753,-0.145752 1.035543,0.135085 1.164983,0.6393 l 0.31662,1.233275 c 0.12945,0.504214 -0.0492,1.125639 -0.0492,1.125639 z"
       style="opacity:1;fill:#d7ac6d;fill-opacity:1;stroke:none;stroke-width:0.06259714" />
    <path
       sodipodi:nodetypes="cssssssssc"
       inkscape:connector-curvature="0"
       id="path2877"
       d="m 81.844886,72.033072 -1.39675,-3.096622 c -0.40747,-0.903386 -1.62265,-0.505401 -2.43318,0.06568 l -1.88732,1.329773 c -0.81054,0.571086 -0.50533,-0.985712 0.26476,-1.610732 l 1.73753,-1.410262 c 0.76997,-0.62516 1.91749,-0.526203 2.51594,0.265289 l 1.46377,1.935935 c 0.59846,0.791494 0.72429,2.458276 -0.26477,2.520909 z"
       style="opacity:1;fill:#d7ac6d;fill-opacity:1;stroke:none;stroke-width:0.11928694" />
    <g
       id="g2922"
       transform="translate(-21.992692,22.70674)">
      <path
         sodipodi:nodetypes="sssssssss"
         inkscape:connector-curvature="0"
         id="path2869"
         d="m 107.88161,43.667076 -0.39328,-1.077121 c -0.18894,-0.517485 -0.38197,-0.847031 -0.25512,-1.383198 l 0.16857,-0.712493 c 0.12685,-0.536162 0.92732,-0.567842 1.38046,-0.255627 l 1.02245,0.704437 c 0.45315,0.312215 0.58128,0.939535 0.25513,1.383198 l -0.79772,1.085167 c -0.32615,0.443662 -1.19153,0.773109 -1.38047,0.255632 z"
         style="opacity:1;fill:#815b23;fill-opacity:1;stroke:none;stroke-width:0.06619431" />
      <path
         style="opacity:1;fill:#c28935;fill-opacity:1;stroke:none;stroke-width:0.06619431"
         d="m 108.21259,42.922385 -0.39328,-1.077121 c -0.18894,-0.517485 -0.38197,-0.847031 -0.25512,-1.383198 l 0.16857,-0.712493 c 0.12685,-0.536162 0.92732,-0.567842 1.38046,-0.255627 l 1.02245,0.704437 c 0.45315,0.312215 0.58127,0.939535 0.25512,1.383198 l -0.79772,1.085167 c -0.32615,0.443662 -1.19153,0.773109 -1.38047,0.255632 z"
         id="path2871"
         inkscape:connector-curvature="0"
         sodipodi:nodetypes="sssssssss" />
      <path
         sodipodi:nodetypes="cssssssssc"
         inkscape:connector-curvature="0"
         id="path2879"
         d="m 109.18153,40.626245 -0.45916,-0.114107 c -0.33003,-0.08202 -0.66856,0.578727 -0.59026,0.247751 l 0.10406,-0.439822 c 0.0783,-0.330972 0.57244,-0.350528 0.85216,-0.157798 l 0.63116,0.434849 c 0.27973,0.19273 0.35881,0.579974 0.15748,0.853847 l -0.49243,0.669874 c -0.20133,0.273872 0.2328,-1.33704 0.0331,-1.061826 z"
         style="opacity:1;fill:#d7ac6d;fill-opacity:1;stroke:none;stroke-width:0.04086173" />
    </g>
    <g
       transform="translate(33.703086,-13.85254)"
       id="g3121">
      <path
         style="opacity:1;fill:#5e421a;fill-opacity:1;stroke:none;stroke-width:0.17106384"
         d="m 107.1936,35.167097 -2.95228,0.186958 c -1.41835,0.08982 -2.3749,0.327563 -3.60798,-0.380438 l -1.638595,-0.940838 c -1.23308,-0.708001 -0.72466,-2.718806 0.37968,-3.615118 l 2.491725,-2.02239 c 1.10417,-0.896513 2.74978,-0.754604 3.60799,0.380438 l 2.09912,2.776235 c 0.85822,1.135044 1.03867,3.525299 -0.37969,3.615118 z"
         id="path3115"
         inkscape:connector-curvature="0"
         sodipodi:nodetypes="sssssssss" />
      <path
         sodipodi:nodetypes="sssssssss"
         inkscape:connector-curvature="0"
         id="path3117"
         d="m 107.02811,34.256919 -2.95228,0.186958 c -1.41835,0.08982 -2.3749,0.327563 -3.60798,-0.380438 l -1.638592,-0.940838 c -1.23308,-0.708001 -0.72466,-2.718806 0.37968,-3.615118 l 2.491722,-2.02239 c 1.10417,-0.896513 2.74978,-0.754604 3.60799,0.380438 l 2.09912,2.776235 c 0.85822,1.135044 1.03867,3.525299 -0.37969,3.615118 z"
         style="opacity:1;fill:#896125;fill-opacity:1;stroke:none;stroke-width:0.17106384" />
      <path
         style="opacity:1;fill:#b47f31;fill-opacity:1;stroke:none;stroke-width:0.11928694"
         d="m 105.83692,33.188837 -1.39675,-3.096622 c -0.40748,-0.903386 -1.62266,-0.505401 -2.43319,0.06568 l -1.88732,1.329773 c -0.810532,0.571086 -0.505324,-0.985712 0.26476,-1.610732 l 1.73754,-1.410262 c 0.76996,-0.62516 1.91748,-0.526203 2.51593,0.265289 l 1.46377,1.935935 c 0.59846,0.791494 0.72429,2.458276 -0.26477,2.520909 z"
         id="path3119"
         inkscape:connector-curvature="0"
         sodipodi:nodetypes="cssssssssc" />
    </g>
    <rect
       style="opacity:1;fill:#a1712c;fill-opacity:1;stroke:none;stroke-width:0.07000434"
       id="rect3482"
       width="33.866665"
       height="33.866665"
       x="164.14238"
       y="12.533875" />
    <path
       style="opacity:1;fill:#815b23;fill-opacity:1;stroke:none;stroke-width:0.26458332"
       d="m 180.1772,31.334808 -2.66676,3.723414 c -1.28118,1.788835 -1.93316,3.168361 -3.98791,3.955389 l -2.73047,1.045853 c -2.05474,0.787028 -3.96379,-1.787614 -3.95539,-3.98791 l 0.0189,-4.964565 c 0.008,-2.200296 1.78905,-4.035236 3.98791,-3.95539 l 5.37826,0.195298 c 2.19887,0.07984 5.23658,2.199076 3.95539,3.987911 z"
       id="path3484"
       inkscape:connector-curvature="0"
       sodipodi:nodetypes="sssssssss" />
    <rect
       style="opacity:1;fill:#87b330;fill-opacity:1;stroke:none;stroke-width:0.26458332"
       id="rect3486"
       width="33.866665"
       height="8.4666662"
       x="164.14238"
       y="12.533875" />
    <path
       sodipodi:nodetypes="sssssssss"
       inkscape:connector-curvature="0"
       id="path3488"
       d="m 180.25995,30.424631 -2.66676,3.723414 c -1.28119,1.788835 -1.93317,3.168361 -3.98791,3.955389 l -2.73047,1.045853 c -2.05474,0.787028 -3.9638,-1.787614 -3.95539,-3.98791 l 0.0189,-4.964565 c 0.008,-2.200296 1.78905,-4.035236 3.98791,-3.95539 l 5.37826,0.195298 c 2.19886,0.07984 5.23657,2.199076 3.95539,3.987911 z"
       style="opacity:1;fill:#c28935;fill-opacity:1;stroke:none;stroke-width:0.26458332" />
    <g
       id="g3528"
       transform="translate(23.134115,-20.877576)">
      <g
         transform="translate(9.9145027,-20.290145)"
         id="g3498">
        <path
           sodipodi:nodetypes="ccccc"
           inkscape:connector-curvature="0"
           id="path3490"
           d="m 131.09378,54.508587 h 33.86666 v 8.466667 c -10.62694,1.001079 -22.57778,4.751113 -33.86666,0 z"
           style="opacity:1;fill:#5f7e22;fill-opacity:1;stroke:none;stroke-width:0.26458332" />
        <path
           sodipodi:nodetypes="cccsc"
           inkscape:connector-curvature="0"
           id="path3492"
           d="m 159.84555,62.964484 1.87873,6.445888 -5.47757,-3.276959 c 0,0 -1.6703,-1.935104 0.26406,-3.450904 1.93436,-1.5158 3.33478,0.281975 3.33478,0.281975 z"
           style="opacity:1;fill:#5f7e22;fill-opacity:1;stroke:none;stroke-width:0.17455094" />
        <path
           style="opacity:1;fill:#5f7e22;fill-opacity:1;stroke:none;stroke-width:0.26458332"
           d="m 141.13481,66.592823 -8.1578,5.758225 1.95071,-9.587336 c 0,0 1.9117,-3.357824 4.98417,-1.212681 3.07247,2.145142 1.22292,5.041792 1.22292,5.041792 z"
           id="path3494"
           inkscape:connector-curvature="0"
           sodipodi:nodetypes="cccsc" />
        <path
           sodipodi:nodetypes="cccsc"
           inkscape:connector-curvature="0"
           id="path3496"
           d="m 145.56748,63.398075 -0.80744,7.296401 -4.24846,-5.75548 c 0,0 -0.89728,-2.69096 1.74047,-3.331698 2.63775,-0.640738 3.31543,1.790777 3.31543,1.790777 z"
           style="opacity:1;fill:#5f7e22;fill-opacity:1;stroke:none;stroke-width:0.19301751" />
      </g>
      <path
         sodipodi:nodetypes="ccccc"
         inkscape:connector-curvature="0"
         id="path3500"
         d="m 141.00828,33.411449 h 33.86666 v 8.466667 c -10.62694,1.001079 -22.57777,4.751113 -33.86666,0 z"
         style="opacity:1;fill:#87b330;fill-opacity:1;stroke:none;stroke-width:0.26458332" />
      <g
         transform="matrix(0.20198962,-0.64093868,0.61243263,0.21139135,135.95579,104.09469)"
         id="g3506">
        <path
           style="opacity:1;fill:#87b330;fill-opacity:1;stroke:none;stroke-width:0.26458332"
           d="m 103.98162,20.901985 -8.1578,5.758225 1.9507,-9.587336 c 0,0 1.91171,-3.357824 4.98418,-1.212681 3.07247,2.145142 1.22292,5.041792 1.22292,5.041792 z"
           id="path3502"
           inkscape:connector-curvature="0"
           sodipodi:nodetypes="cccsc" />
        <path
           sodipodi:nodetypes="cccsc"
           inkscape:connector-curvature="0"
           id="path3504"
           d="m 103.29012,19.030332 -4.7478,3.441348 1.1353,-5.72978 c 0,0 1.11261,-2.006771 2.90077,-0.724747 1.78816,1.282024 0.71173,3.013179 0.71173,3.013179 z"
           style="opacity:1;fill:#b0d766;fill-opacity:1;stroke:none;stroke-width:0.15604219" />
      </g>
      <path
         sodipodi:nodetypes="cccsc"
         inkscape:connector-curvature="0"
         id="path3508"
         d="m 169.27526,38.639149 4.30546,2.059913 -4.38299,1.506348 c 0,0 -1.82928,0.0063 -1.68889,-1.819828 0.14039,-1.826081 1.76642,-1.746433 1.76642,-1.746433 z"
         style="opacity:1;fill:#5f7e22;fill-opacity:1;stroke:none;stroke-width:0.12733753" />
      <path
         style="opacity:1;fill:#87b330;fill-opacity:1;stroke:none;stroke-width:0.12733753"
         d="m 168.75648,38.350937 4.30546,2.059913 -4.38299,1.506348 c 0,0 -1.82928,0.0063 -1.68889,-1.819828 0.14039,-1.826081 1.76642,-1.746433 1.76642,-1.746433 z"
         id="path3510"
         inkscape:connector-curvature="0"
         sodipodi:nodetypes="cccsc" />
      <path
         sodipodi:nodetypes="cccsc"
         inkscape:connector-curvature="0"
         id="path3512"
         d="m 168.09997,39.100054 2.54256,1.176926 -2.61215,0.913205 c 0,0 -1.08608,0.01643 -0.99067,-1.054513 0.0954,-1.07094 1.06026,-1.035618 1.06026,-1.035618 z"
         style="opacity:1;fill:#b0d766;fill-opacity:1;stroke:none;stroke-width:0.07509932" />
      <g
         transform="translate(47.067697,24.5937)"
         id="g3518">
        <path
           sodipodi:nodetypes="cccsc"
           inkscape:connector-curvature="0"
           id="path3514"
           d="m 103.98162,20.901985 -8.1578,5.758225 1.9507,-9.587336 c 0,0 1.91171,-3.357824 4.98418,-1.212681 3.07247,2.145142 1.22292,5.041792 1.22292,5.041792 z"
           style="opacity:1;fill:#87b330;fill-opacity:1;stroke:none;stroke-width:0.26458332" />
        <path
           style="opacity:1;fill:#b0d766;fill-opacity:1;stroke:none;stroke-width:0.15604219"
           d="m 103.29012,19.030332 -4.7478,3.441348 1.1353,-5.72978 c 0,0 1.11261,-2.006771 2.90077,-0.724747 1.78816,1.282024 0.71173,3.013179 0.71173,3.013179 z"
           id="path3516"
           inkscape:connector-curvature="0"
           sodipodi:nodetypes="cccsc" />
      </g>
      <g
         id="g3524"
         transform="matrix(0.4808192,-0.54960064,0.54096374,0.48849585,94.178408,89.238769)">
        <path
           style="opacity:1;fill:#87b330;fill-opacity:1;stroke:none;stroke-width:0.26458332"
           d="m 103.98162,20.901985 -8.1578,5.758225 1.9507,-9.587336 c 0,0 1.91171,-3.357824 4.98418,-1.212681 3.07247,2.145142 1.22292,5.041792 1.22292,5.041792 z"
           id="path3520"
           inkscape:connector-curvature="0"
           sodipodi:nodetypes="cccsc" />
        <path
           sodipodi:nodetypes="cccsc"
           inkscape:connector-curvature="0"
           id="path3522"
           d="m 103.29012,19.030332 -4.7478,3.441348 1.1353,-5.72978 c 0,0 1.11261,-2.006771 2.90077,-0.724747 1.78816,1.282024 0.71173,3.013179 0.71173,3.013179 z"
           style="opacity:1;fill:#b0d766;fill-opacity:1;stroke:none;stroke-width:0.15604219" />
      </g>
      <path
         style="opacity:1;fill:#b0d766;fill-opacity:1;stroke:none;stroke-width:0.07509932"
         d="m 168.09997,39.100054 2.54256,1.176926 -2.61215,0.913205 c 0,0 -1.08608,0.01643 -0.99067,-1.054513 0.0954,-1.07094 1.06026,-1.035618 1.06026,-1.035618 z"
         id="path3526"
         inkscape:connector-curvature="0"
         sodipodi:nodetypes="cccsc" />
    </g>
    <rect
       style="opacity:1;fill:#a9c735;fill-opacity:1;stroke:none;stroke-width:0.10354543"
       id="rect3530"
       width="33.866665"
       height="1.2967293"
       x="164.14238"
       y="13.433452" />
    <path
       style="opacity:1;fill:#815b23;fill-opacity:1;stroke:none;stroke-width:0.06619431"
       d="m 186.28833,41.741937 -0.39328,-1.077121 c -0.18894,-0.517485 -0.38197,-0.847031 -0.25512,-1.383198 l 0.16857,-0.712493 c 0.12685,-0.536162 0.92732,-0.567842 1.38046,-0.255627 l 1.02245,0.704437 c 0.45315,0.312215 0.58127,0.939535 0.25512,1.383198 l -0.79772,1.085167 c -0.32615,0.443662 -1.19153,0.773109 -1.38047,0.255632 z"
       id="path3532"
       inkscape:connector-curvature="0"
       sodipodi:nodetypes="sssssssss" />
    <path
       sodipodi:nodetypes="sssssssss"
       inkscape:connector-curvature="0"
       id="path3534"
       d="m 186.6193,40.997246 -0.39328,-1.077121 c -0.18894,-0.517485 -0.38197,-0.847031 -0.25512,-1.383198 l 0.16857,-0.712493 c 0.12685,-0.536162 0.92732,-0.567842 1.38046,-0.255627 l 1.02245,0.704437 c 0.45315,0.312215 0.58127,0.939535 0.25512,1.383198 l -0.79772,1.085167 c -0.32615,0.443662 -1.19153,0.773109 -1.38047,0.255632 z"
       style="opacity:1;fill:#c28935;fill-opacity:1;stroke:none;stroke-width:0.06619431" />
    <path
       style="opacity:1;fill:#d7ac6d;fill-opacity:1;stroke:none;stroke-width:0.18436231"
       d="m 178.28371,31.134689 -3.34759,-1.128969 c 0.20847,0.07031 -3.55987,-1.161911 -3.7717,0.356567 l -0.90968,6.52079 c -0.21184,1.518478 -1.2726,-0.91464 -1.26674,-2.447812 l 0.0132,-3.459321 c 0.006,-1.533172 1.24661,-2.811762 2.77878,-2.756126 l 3.74759,0.136085 c 1.53217,0.05563 3.64885,1.532321 2.75612,2.778786 z"
       id="path3536"
       inkscape:connector-curvature="0"
       sodipodi:nodetypes="ccsssssssc" />
    <path
       sodipodi:nodetypes="sssssssss"
       inkscape:connector-curvature="0"
       id="path3538"
       d="m 178.83636,44.605911 -1.67432,-0.580854 c -0.8044,-0.27906 -1.38785,-0.369569 -1.90542,-1.045624 l -0.68778,-0.898385 c -0.51756,-0.676056 0.22825,-1.66703 1.04563,-1.905416 l 1.84424,-0.537888 c 0.81738,-0.238388 1.6937,0.220942 1.90542,1.045624 l 0.51785,2.017113 c 0.21172,0.82468 -0.24123,2.184471 -1.04562,1.905415 z"
       style="opacity:1;fill:#6d4216;fill-opacity:1;stroke:none;stroke-width:0.1023823" />
    <path
       style="opacity:1;fill:#d58935;fill-opacity:1;stroke:none;stroke-width:0.1023823"
       d="m 178.9191,43.943965 -1.67432,-0.580854 c -0.8044,-0.27906 -1.38785,-0.369569 -1.90542,-1.045624 l -0.68778,-0.898385 c -0.51756,-0.676056 0.22825,-1.66703 1.04563,-1.905416 l 1.84424,-0.537888 c 0.81738,-0.238388 1.6937,0.220942 1.90542,1.045624 l 0.51785,2.017113 c 0.21172,0.82468 -0.24123,2.184471 -1.04562,1.905415 z"
       id="path3540"
       inkscape:connector-curvature="0"
       sodipodi:nodetypes="sssssssss" />
    <path
       sodipodi:nodetypes="cssssssscc"
       inkscape:connector-curvature="0"
       id="path3542"
       d="m 178.84041,42.914645 -0.49256,-1.79115 c -0.13803,-0.501936 -0.90671,-0.862806 -1.62837,-0.388865 l -1.05873,0.695313 c -0.43512,0.285761 0.13956,-1.019232 0.63931,-1.164982 l 1.12758,-0.328868 c 0.49975,-0.145752 1.03553,0.135085 1.16498,0.6393 l 0.31662,1.233275 c 0.12944,0.504214 -0.0492,1.125639 -0.0492,1.125639 z"
       style="opacity:1;fill:#e2b077;fill-opacity:1;stroke:none;stroke-width:0.06259714" />
    <path
       sodipodi:nodetypes="sssssssss"
       inkscape:connector-curvature="0"
       id="path3544"
       d="m 193.59765,35.812532 -2.95228,0.186958 c -1.41835,0.08982 -2.3749,0.327563 -3.60798,-0.380438 l -1.63859,-0.940838 c -1.23308,-0.708001 -0.72466,-2.718806 0.37968,-3.615118 l 2.49172,-2.02239 c 1.10417,-0.896513 2.74978,-0.754604 3.60799,0.380438 l 2.09912,2.776235 c 0.85822,1.135044 1.03867,3.525299 -0.37969,3.615118 z"
       style="opacity:1;fill:#5e421a;fill-opacity:1;stroke:none;stroke-width:0.17106384" />
    <path
       style="opacity:1;fill:#896125;fill-opacity:1;stroke:none;stroke-width:0.17106384"
       d="m 193.43216,34.902354 -2.95228,0.186958 c -1.41835,0.08982 -2.3749,0.327563 -3.60798,-0.380438 l -1.63859,-0.940838 c -1.23308,-0.708001 -0.72466,-2.718806 0.37968,-3.615118 l 2.49172,-2.02239 c 1.10417,-0.896513 2.74978,-0.754604 3.60799,0.380438 l 2.09912,2.776235 c 0.85822,1.135044 1.03867,3.525299 -0.37969,3.615118 z"
       id="path3546"
       inkscape:connector-curvature="0"
       sodipodi:nodetypes="sssssssss" />
    <path
       sodipodi:nodetypes="cssssssssc"
       inkscape:connector-curvature="0"
       id="path3548"
       d="m 192.24097,33.834272 -1.39675,-3.096622 c -0.40748,-0.903386 -1.62266,-0.505401 -2.43319,0.06568 l -1.88732,1.329773 c -0.81053,0.571086 -0.50532,-0.985712 0.26476,-1.610732 l 1.73754,-1.410262 c 0.76996,-0.62516 1.91748,-0.526203 2.51593,0.265289 l 1.46377,1.935935 c 0.59846,0.791494 0.72429,2.458276 -0.26477,2.520909 z"
       style="opacity:1;fill:#b47f31;fill-opacity:1;stroke:none;stroke-width:0.11928694" />
    <path
       style="opacity:1;fill:#d7ac6d;fill-opacity:1;stroke:none;stroke-width:0.04086173"
       d="m 187.58824,38.701106 -0.45916,-0.114107 c -0.33003,-0.08202 -0.66856,0.578727 -0.59026,0.247751 l 0.10406,-0.439822 c 0.0783,-0.330972 0.57244,-0.350528 0.85216,-0.157798 l 0.63116,0.434849 c 0.27973,0.19273 0.35881,0.579974 0.15748,0.853847 l -0.49243,0.669874 c -0.20133,0.273872 0.2328,-1.33704 0.0331,-1.061826 z"
       id="path3550"
       inkscape:connector-curvature="0"
       sodipodi:nodetypes="cssssssssc" />
    <rect
       y="94.554703"
       x="51.959045"
       height="33.866665"
       width="33.866665"
       id="rect3562"
       style="opacity:1;fill:#000000;fill-opacity:1;stroke:none;stroke-width:0.07000434" />
    <ellipse
       style="opacity:1;fill:#ffffff;fill-opacity:1;stroke:none;stroke-width:0.14431818"
       id="path3564"
       cx="68.89238"
       cy="111.48804"
       rx="3.175"
       ry="3.3914771" />
    <rect
       style="opacity:1;fill:#000000;fill-opacity:1;stroke:none;stroke-width:0.07000434"
       id="rect7269"
       width="33.866665"
       height="33.866665"
       x="89.00071"
       y="94.554703" />
    <ellipse
       ry="5.2991834"
       rx="4.9609375"
       cy="111.48804"
       cx="105.93404"
       id="ellipse7271"
       style="opacity:1;fill:#ffffff;fill-opacity:1;stroke:none;stroke-width:0.22549716" />
    <rect
       y="94.554703"
       x="126.30696"
       height="33.866665"
       width="33.866665"
       id="rect7275"
       style="opacity:1;fill:#000000;fill-opacity:1;stroke:none;stroke-width:0.07000434" />
    <ellipse
       style="opacity:1;fill:#ffffff;fill-opacity:1;stroke:none;stroke-width:0.3523393"
       id="ellipse7277"
       cx="143.2403"
       cy="111.48804"
       rx="7.7514648"
       ry="8.279974" />
    <rect
       style="opacity:1;fill:#000000;fill-opacity:1;stroke:none;stroke-width:0.07000434"
       id="rect7281"
       width="33.866665"
       height="33.866665"
       x="163.87779"
       y="94.025536" />
    <ellipse
       ry="10.349968"
       rx="9.6893311"
       cy="110.95887"
       cx="180.81113"
       id="ellipse7283"
       style="opacity:1;fill:#ffffff;fill-opacity:1;stroke:none;stroke-width:0.44042411" />
    <rect
       y="130.80261"
       x="164.14238"
       height="33.866665"
       width="33.866665"
       id="rect7287"
       style="opacity:1;fill:#000000;fill-opacity:1;stroke:none;stroke-width:0.07000434" />
    <ellipse
       style="opacity:1;fill:#ffffff;fill-opacity:1;stroke:none;stroke-width:0.68816268"
       id="ellipse7289"
       cx="181.07571"
       cy="147.73595"
       rx="15.13958"
       ry="16.171824" />
    <path
       style="opacity:1;fill:#000000;fill-opacity:1;stroke:none;stroke-width:0.26458332"
       d="M 37.380859 645.37305 L 37.380859 773.37305 L 165.38086 773.37305 L 165.38086 645.37305 L 37.380859 645.37305 z M 101.38086 696.55469 A 12 12.818181 0 0 1 113.38086 709.37305 A 12 12.818181 0 0 1 101.38086 722.18945 A 12 12.818181 0 0 1 89.380859 709.37305 A 12 12.818181 0 0 1 101.38086 696.55469 z "
       transform="scale(0.26458333)"
       id="rect7308"
       inkscape:export-filename="C:\Users\candr\breaking_1.png"
       inkscape:export-xdpi="96"
       inkscape:export-ydpi="96" />
    <path
       style="opacity:1;fill:#000000;fill-opacity:1;stroke:none;stroke-width:0.26458332"
       d="M 177.38086 645.37305 L 177.38086 773.37305 L 305.38086 773.37305 L 305.38086 645.37305 L 177.38086 645.37305 z M 241.38086 689.34375 A 18.75 20.02841 0 0 1 260.13086 709.37305 A 18.75 20.02841 0 0 1 241.38086 729.40039 A 18.75 20.02841 0 0 1 222.63086 709.37305 A 18.75 20.02841 0 0 1 241.38086 689.34375 z "
       transform="scale(0.26458333)"
       id="rect7312"
       inkscape:export-xdpi="96"
       inkscape:export-ydpi="96" />
    <path
       style="opacity:1;fill:#000000;fill-opacity:1;stroke:none;stroke-width:0.26458332"
       d="M 318.38086 645.37305 L 318.38086 773.37305 L 446.38086 773.37305 L 446.38086 645.37305 L 318.38086 645.37305 z M 382.38086 678.07812 A 29.296875 31.29439 0 0 1 411.67773 709.37305 A 29.296875 31.29439 0 0 1 382.38086 740.66602 A 29.296875 31.29439 0 0 1 353.08398 709.37305 A 29.296875 31.29439 0 0 1 382.38086 678.07812 z "
       transform="scale(0.26458333)"
       id="rect7316"
       inkscape:export-xdpi="96"
       inkscape:export-ydpi="96" />
    <path
       style="opacity:1;fill:#000000;fill-opacity:1;stroke:none;stroke-width:0.26458332"
       d="M 460.38086 643.37305 L 460.38086 771.37305 L 588.38086 771.37305 L 588.38086 643.37305 L 460.38086 643.37305 z M 524.38086 668.25391 A 36.621094 39.117989 0 0 1 561.00195 707.37305 A 36.621094 39.117989 0 0 1 524.38086 746.49023 A 36.621094 39.117989 0 0 1 487.75977 707.37305 A 36.621094 39.117989 0 0 1 524.38086 668.25391 z "
       transform="scale(0.26458333)"
       id="rect7320"
       inkscape:export-xdpi="96"
       inkscape:export-ydpi="96" />
    <path
       style="opacity:1;fill:#000000;fill-opacity:1;stroke:none;stroke-width:0.26458332"
       d="M 461.38086 782.37109 L 461.38086 910.37109 L 589.38086 910.37109 L 589.38086 782.37109 L 461.38086 782.37109 z M 525.38086 785.25 A 57.220459 61.121853 0 0 1 582.60156 846.37305 A 57.220459 61.121853 0 0 1 525.38086 907.49414 A 57.220459 61.121853 0 0 1 468.16016 846.37305 A 57.220459 61.121853 0 0 1 525.38086 785.25 z "
       id="rect7324"
       transform="scale(0.26458333)"
       inkscape:export-xdpi="96"
       inkscape:export-ydpi="96" />
    <rect
       style="opacity:1;fill:#000000;fill-opacity:1;stroke:none;stroke-width:0.07000434"
       id="rect7333"
       width="33.866665"
       height="33.866665"
       x="9.0965452"
       y="214.14636"
       inkscape:export-xdpi="96"
       inkscape:export-ydpi="96" />
    <g
       id="g7541"
       inkscape:export-xdpi="96"
       inkscape:export-ydpi="96">
      <g
         transform="translate(-38.629167,80.433333)"
         id="g3297"
         inkscape:export-xdpi="96"
         inkscape:export-ydpi="96">
        <g
           id="g3295">
          <rect
             y="14.030583"
             x="49.176403"
             height="33.866665"
             width="33.866665"
             id="rect3219"
             style="opacity:1;fill:#a1712c;fill-opacity:1;stroke:none;stroke-width:0.07000434" />
          <path
             sodipodi:nodetypes="sssssssss"
             inkscape:connector-curvature="0"
             id="path3221"
             d="m 65.211214,32.831518 -2.66676,3.723414 c -1.281187,1.788835 -1.933169,3.168361 -3.98791,3.955389 l -2.730471,1.045853 c -2.054741,0.787028 -3.963797,-1.787614 -3.955389,-3.98791 l 0.01893,-4.964565 c 0.0084,-2.200296 1.789047,-4.035236 3.98791,-3.95539 l 5.37826,0.195298 c 2.198862,0.07984 5.236576,2.199076 3.955389,3.987911 z"
             style="opacity:1;fill:#815b23;fill-opacity:1;stroke:none;stroke-width:0.26458332" />
          <rect
             y="14.030583"
             x="49.176403"
             height="8.4666662"
             width="33.866665"
             id="rect3223"
             style="opacity:1;fill:#87b330;fill-opacity:1;stroke:none;stroke-width:0.26458332" />
          <path
             style="opacity:1;fill:#c28935;fill-opacity:1;stroke:none;stroke-width:0.26458332"
             d="m 65.293958,31.921341 -2.66676,3.723414 c -1.281187,1.788835 -1.933169,3.168361 -3.98791,3.955389 l -2.730471,1.045853 c -2.054741,0.787028 -3.963797,-1.787614 -3.955389,-3.98791 l 0.01893,-4.964565 c 0.0084,-2.200296 1.789047,-4.035236 3.98791,-3.95539 l 5.37826,0.195298 c 2.198862,0.07984 5.236576,2.199076 3.955389,3.987911 z"
             id="path3225"
             inkscape:connector-curvature="0"
             sodipodi:nodetypes="sssssssss" />
          <g
             id="g3267"
             transform="translate(-47.439742,-18.964368)">
            <g
               id="g3265"
               transform="translate(-44.39213,-0.4164984)">
              <g
                 transform="translate(9.9145027,-20.290145)"
                 id="g3235">
                <path
                   sodipodi:nodetypes="ccccc"
                   inkscape:connector-curvature="0"
                   id="path3227"
                   d="m 131.09378,54.508587 h 33.86666 v 8.466667 c -10.62694,1.001079 -22.57778,4.751113 -33.86666,0 z"
                   style="opacity:1;fill:#5f7e22;fill-opacity:1;stroke:none;stroke-width:0.26458332" />
                <path
                   sodipodi:nodetypes="cccsc"
                   inkscape:connector-curvature="0"
                   id="path3229"
                   d="m 159.84555,62.964484 1.87873,6.445888 -5.47757,-3.276959 c 0,0 -1.6703,-1.935104 0.26406,-3.450904 1.93436,-1.5158 3.33478,0.281975 3.33478,0.281975 z"
                   style="opacity:1;fill:#5f7e22;fill-opacity:1;stroke:none;stroke-width:0.17455094" />
                <path
                   style="opacity:1;fill:#5f7e22;fill-opacity:1;stroke:none;stroke-width:0.26458332"
                   d="m 141.13481,66.592823 -8.1578,5.758225 1.95071,-9.587336 c 0,0 1.9117,-3.357824 4.98417,-1.212681 3.07247,2.145142 1.22292,5.041792 1.22292,5.041792 z"
                   id="path3231"
                   inkscape:connector-curvature="0"
                   sodipodi:nodetypes="cccsc" />
                <path
                   sodipodi:nodetypes="cccsc"
                   inkscape:connector-curvature="0"
                   id="path3233"
                   d="m 145.56748,63.398075 -0.80744,7.296401 -4.24846,-5.75548 c 0,0 -0.89728,-2.69096 1.74047,-3.331698 2.63775,-0.640738 3.31543,1.790777 3.31543,1.790777 z"
                   style="opacity:1;fill:#5f7e22;fill-opacity:1;stroke:none;stroke-width:0.19301751" />
              </g>
              <path
                 sodipodi:nodetypes="ccccc"
                 inkscape:connector-curvature="0"
                 id="path3237"
                 d="m 141.00828,33.411449 h 33.86666 v 8.466667 c -10.62694,1.001079 -22.57777,4.751113 -33.86666,0 z"
                 style="opacity:1;fill:#87b330;fill-opacity:1;stroke:none;stroke-width:0.26458332" />
              <g
                 transform="matrix(0.20198962,-0.64093868,0.61243263,0.21139135,135.95579,104.09469)"
                 id="g3243">
                <path
                   style="opacity:1;fill:#87b330;fill-opacity:1;stroke:none;stroke-width:0.26458332"
                   d="m 103.98162,20.901985 -8.1578,5.758225 1.9507,-9.587336 c 0,0 1.91171,-3.357824 4.98418,-1.212681 3.07247,2.145142 1.22292,5.041792 1.22292,5.041792 z"
                   id="path3239"
                   inkscape:connector-curvature="0"
                   sodipodi:nodetypes="cccsc" />
                <path
                   sodipodi:nodetypes="cccsc"
                   inkscape:connector-curvature="0"
                   id="path3241"
                   d="m 103.29012,19.030332 -4.7478,3.441348 1.1353,-5.72978 c 0,0 1.11261,-2.006771 2.90077,-0.724747 1.78816,1.282024 0.71173,3.013179 0.71173,3.013179 z"
                   style="opacity:1;fill:#b0d766;fill-opacity:1;stroke:none;stroke-width:0.15604219" />
              </g>
              <path
                 sodipodi:nodetypes="cccsc"
                 inkscape:connector-curvature="0"
                 id="path3245"
                 d="m 169.27526,38.639149 4.30546,2.059913 -4.38299,1.506348 c 0,0 -1.82928,0.0063 -1.68889,-1.819828 0.14039,-1.826081 1.76642,-1.746433 1.76642,-1.746433 z"
                 style="opacity:1;fill:#5f7e22;fill-opacity:1;stroke:none;stroke-width:0.12733753" />
              <path
                 style="opacity:1;fill:#87b330;fill-opacity:1;stroke:none;stroke-width:0.12733753"
                 d="m 168.75648,38.350937 4.30546,2.059913 -4.38299,1.506348 c 0,0 -1.82928,0.0063 -1.68889,-1.819828 0.14039,-1.826081 1.76642,-1.746433 1.76642,-1.746433 z"
                 id="path3247"
                 inkscape:connector-curvature="0"
                 sodipodi:nodetypes="cccsc" />
              <path
                 sodipodi:nodetypes="cccsc"
                 inkscape:connector-curvature="0"
                 id="path3249"
                 d="m 168.09997,39.100054 2.54256,1.176926 -2.61215,0.913205 c 0,0 -1.08608,0.01643 -0.99067,-1.054513 0.0954,-1.07094 1.06026,-1.035618 1.06026,-1.035618 z"
                 style="opacity:1;fill:#b0d766;fill-opacity:1;stroke:none;stroke-width:0.07509932" />
              <g
                 transform="translate(47.067697,24.5937)"
                 id="g3255">
                <path
                   sodipodi:nodetypes="cccsc"
                   inkscape:connector-curvature="0"
                   id="path3251"
                   d="m 103.98162,20.901985 -8.1578,5.758225 1.9507,-9.587336 c 0,0 1.91171,-3.357824 4.98418,-1.212681 3.07247,2.145142 1.22292,5.041792 1.22292,5.041792 z"
                   style="opacity:1;fill:#87b330;fill-opacity:1;stroke:none;stroke-width:0.26458332" />
                <path
                   style="opacity:1;fill:#b0d766;fill-opacity:1;stroke:none;stroke-width:0.15604219"
                   d="m 103.29012,19.030332 -4.7478,3.441348 1.1353,-5.72978 c 0,0 1.11261,-2.006771 2.90077,-0.724747 1.78816,1.282024 0.71173,3.013179 0.71173,3.013179 z"
                   id="path3253"
                   inkscape:connector-curvature="0"
                   sodipodi:nodetypes="cccsc" />
              </g>
              <g
                 id="g3261"
                 transform="matrix(0.4808192,-0.54960064,0.54096374,0.48849585,94.178408,89.238769)">
                <path
                   style="opacity:1;fill:#87b330;fill-opacity:1;stroke:none;stroke-width:0.26458332"
                   d="m 103.98162,20.901985 -8.1578,5.758225 1.9507,-9.587336 c 0,0 1.91171,-3.357824 4.98418,-1.212681 3.07247,2.145142 1.22292,5.041792 1.22292,5.041792 z"
                   id="path3257"
                   inkscape:connector-curvature="0"
                   sodipodi:nodetypes="cccsc" />
                <path
                   sodipodi:nodetypes="cccsc"
                   inkscape:connector-curvature="0"
                   id="path3259"
                   d="m 103.29012,19.030332 -4.7478,3.441348 1.1353,-5.72978 c 0,0 1.11261,-2.006771 2.90077,-0.724747 1.78816,1.282024 0.71173,3.013179 0.71173,3.013179 z"
                   style="opacity:1;fill:#b0d766;fill-opacity:1;stroke:none;stroke-width:0.15604219" />
              </g>
              <path
                 style="opacity:1;fill:#b0d766;fill-opacity:1;stroke:none;stroke-width:0.07509932"
                 d="m 168.09997,39.100054 2.54256,1.176926 -2.61215,0.913205 c 0,0 -1.08608,0.01643 -0.99067,-1.054513 0.0954,-1.07094 1.06026,-1.035618 1.06026,-1.035618 z"
                 id="path3263"
                 inkscape:connector-curvature="0"
                 sodipodi:nodetypes="cccsc" />
            </g>
          </g>
          <rect
             y="14.400995"
             x="49.176403"
             height="1.764451"
             width="33.866665"
             id="rect3269"
             style="opacity:1;fill:#a9c735;fill-opacity:1;stroke:none;stroke-width:0.12078446" />
          <path
             sodipodi:nodetypes="sssssssss"
             inkscape:connector-curvature="0"
             id="path3271"
             d="m 71.322335,43.238647 -0.39328,-1.077121 c -0.18894,-0.517485 -0.38197,-0.847031 -0.25512,-1.383198 l 0.16857,-0.712493 c 0.12685,-0.536162 0.92732,-0.567842 1.38046,-0.255627 l 1.02245,0.704437 c 0.45315,0.312215 0.58127,0.939535 0.25512,1.383198 l -0.79772,1.085167 c -0.32615,0.443662 -1.19153,0.773109 -1.38047,0.255632 z"
             style="opacity:1;fill:#815b23;fill-opacity:1;stroke:none;stroke-width:0.06619431" />
          <path
             style="opacity:1;fill:#c28935;fill-opacity:1;stroke:none;stroke-width:0.06619431"
             d="m 71.653309,42.493956 -0.39328,-1.077121 c -0.18894,-0.517485 -0.38197,-0.847031 -0.25512,-1.383198 l 0.16857,-0.712493 c 0.12685,-0.536162 0.92732,-0.567842 1.38046,-0.255627 l 1.02245,0.704437 c 0.45315,0.312215 0.58127,0.939535 0.25512,1.383198 l -0.79772,1.085167 c -0.32615,0.443662 -1.19153,0.773109 -1.38047,0.255632 z"
             id="path3273"
             inkscape:connector-curvature="0"
             sodipodi:nodetypes="sssssssss" />
          <path
             sodipodi:nodetypes="ccsssssssc"
             inkscape:connector-curvature="0"
             id="path3275"
             d="M 63.317719,32.631399 59.970133,31.50243 c 0.208469,0.07031 -3.559873,-1.161911 -3.771707,0.356567 l -0.909678,6.52079 c -0.211834,1.518478 -1.272602,-0.91464 -1.266743,-2.447812 l 0.01319,-3.459321 c 0.0059,-1.533172 1.246612,-2.811762 2.778786,-2.756126 l 3.747584,0.136085 c 1.532173,0.05563 3.648859,1.532321 2.756125,2.778786 z"
             style="opacity:1;fill:#d7ac6d;fill-opacity:1;stroke:none;stroke-width:0.18436231" />
          <g
             id="g3283"
             transform="translate(-49.126533,11.067751)">
            <path
               sodipodi:nodetypes="sssssssss"
               inkscape:connector-curvature="0"
               id="path3277"
               d="m 112.9969,35.03487 -1.67432,-0.580854 c -0.8044,-0.27906 -1.38785,-0.369569 -1.90542,-1.045624 l -0.68778,-0.898385 c -0.51756,-0.676056 0.22825,-1.66703 1.04563,-1.905416 l 1.84424,-0.537888 c 0.81738,-0.238388 1.6937,0.220942 1.90542,1.045624 l 0.51785,2.017113 c 0.21172,0.82468 -0.24123,2.184471 -1.04562,1.905415 z"
               style="opacity:1;fill:#6d4216;fill-opacity:1;stroke:none;stroke-width:0.1023823" />
            <path
               style="opacity:1;fill:#d58935;fill-opacity:1;stroke:none;stroke-width:0.1023823"
               d="m 113.07964,34.372924 -1.67432,-0.580854 c -0.8044,-0.27906 -1.38785,-0.369569 -1.90542,-1.045624 l -0.68778,-0.898385 c -0.51756,-0.676056 0.22825,-1.66703 1.04563,-1.905416 l 1.84424,-0.537888 c 0.81738,-0.238388 1.6937,0.220942 1.90542,1.045624 l 0.51785,2.017113 c 0.21172,0.82468 -0.24123,2.184471 -1.04562,1.905415 z"
               id="path3279"
               inkscape:connector-curvature="0"
               sodipodi:nodetypes="sssssssss" />
            <path
               sodipodi:nodetypes="cssssssscc"
               inkscape:connector-curvature="0"
               id="path3281"
               d="m 113.00095,33.343604 -0.49256,-1.79115 c -0.13803,-0.501936 -0.90671,-0.862806 -1.62837,-0.388865 l -1.05873,0.695313 c -0.43512,0.285761 0.13956,-1.019232 0.63931,-1.164982 l 1.12758,-0.328868 c 0.49975,-0.145752 1.03553,0.135085 1.16498,0.6393 l 0.31662,1.233275 c 0.12944,0.504214 -0.0492,1.125639 -0.0492,1.125639 z"
               style="opacity:1;fill:#e2b077;fill-opacity:1;stroke:none;stroke-width:0.06259714" />
          </g>
          <g
             id="g3291"
             transform="translate(-28.561938,2.1421453)">
            <path
               sodipodi:nodetypes="sssssssss"
               inkscape:connector-curvature="0"
               id="path3285"
               d="m 107.1936,35.167097 -2.95228,0.186958 c -1.41835,0.08982 -2.3749,0.327563 -3.60798,-0.380438 l -1.638595,-0.940838 c -1.23308,-0.708001 -0.72466,-2.718806 0.37968,-3.615118 l 2.491725,-2.02239 c 1.10417,-0.896513 2.74978,-0.754604 3.60799,0.380438 l 2.09912,2.776235 c 0.85822,1.135044 1.03867,3.525299 -0.37969,3.615118 z"
               style="opacity:1;fill:#5e421a;fill-opacity:1;stroke:none;stroke-width:0.17106384" />
            <path
               style="opacity:1;fill:#896125;fill-opacity:1;stroke:none;stroke-width:0.17106384"
               d="m 107.02811,34.256919 -2.95228,0.186958 c -1.41835,0.08982 -2.3749,0.327563 -3.60798,-0.380438 l -1.638592,-0.940838 c -1.23308,-0.708001 -0.72466,-2.718806 0.37968,-3.615118 l 2.491722,-2.02239 c 1.10417,-0.896513 2.74978,-0.754604 3.60799,0.380438 l 2.09912,2.776235 c 0.85822,1.135044 1.03867,3.525299 -0.37969,3.615118 z"
               id="path3287"
               inkscape:connector-curvature="0"
               sodipodi:nodetypes="sssssssss" />
            <path
               sodipodi:nodetypes="cssssssssc"
               inkscape:connector-curvature="0"
               id="path3289"
               d="m 105.83692,33.188837 -1.39675,-3.096622 c -0.40748,-0.903386 -1.62266,-0.505401 -2.43319,0.06568 l -1.88732,1.329773 c -0.810532,0.571086 -0.505324,-0.985712 0.26476,-1.610732 l 1.73754,-1.410262 c 0.76996,-0.62516 1.91748,-0.526203 2.51593,0.265289 l 1.46377,1.935935 c 0.59846,0.791494 0.72429,2.458276 -0.26477,2.520909 z"
               style="opacity:1;fill:#b47f31;fill-opacity:1;stroke:none;stroke-width:0.11928694" />
          </g>
          <path
             sodipodi:nodetypes="cssssssssc"
             inkscape:connector-curvature="0"
             id="path3293"
             d="m 72.622245,40.197816 -0.459156,-0.114107 c -0.330032,-0.08202 -0.668561,0.578727 -0.590257,0.247751 l 0.104059,-0.439822 c 0.0783,-0.330972 0.572434,-0.350528 0.852157,-0.157798 l 0.631158,0.434849 c 0.27973,0.19273 0.358818,0.579974 0.157486,0.853847 l -0.492433,0.669874 c -0.201332,0.273872 0.232804,-1.33704 0.03305,-1.061826 z"
             style="opacity:1;fill:#d7ac6d;fill-opacity:1;stroke:none;stroke-width:0.04086173" />
        </g>
      </g>
      <rect
         y="94.435509"
         x="10.503024"
         height="33.866665"
         width="33.866665"
         id="rect7417"
         style="opacity:1;fill:#5e5a52;fill-opacity:1;stroke:none;stroke-width:0.07000434"
         inkscape:export-xdpi="96"
         inkscape:export-ydpi="96" />
      <rect
         style="opacity:1;fill:#3d3c36;fill-opacity:1;stroke:none;stroke-width:0.26458332"
         id="rect7425"
         width="14.218739"
         height="7.2029138"
         x="11.599497"
         y="98.686005"
         ry="3.6014569" />
      <rect
         ry="3.6014569"
         y="97.937653"
         x="11.038231"
         height="7.2029138"
         width="14.218739"
         id="rect7419"
         style="opacity:1;fill:#8a8478;fill-opacity:1;stroke:none;stroke-width:0.26458332" />
      <rect
         ry="3.6014569"
         y="107.66628"
         x="28.624565"
         height="7.2029138"
         width="14.218739"
         id="rect7427"
         style="opacity:1;fill:#3d3c36;fill-opacity:1;stroke:none;stroke-width:0.26458332" />
      <rect
         style="opacity:1;fill:#34312d;fill-opacity:1;stroke:none;stroke-width:0.26458332"
         id="rect7421"
         width="14.218739"
         height="7.2029138"
         x="28.063299"
         y="106.91792"
         ry="3.6014569" />
      <rect
         ry="3.6014569"
         y="119.54639"
         x="20.112032"
         height="7.2029138"
         width="14.218739"
         id="rect7429"
         style="opacity:1;fill:#3d3c36;fill-opacity:1;stroke:none;stroke-width:0.26458332" />
      <rect
         style="opacity:1;fill:#8a8478;fill-opacity:1;stroke:none;stroke-width:0.26458332"
         id="rect7423"
         width="14.218739"
         height="7.2029138"
         x="19.550766"
         y="118.79804"
         ry="3.6014569" />
      <path
         sodipodi:nodetypes="sssssss"
         inkscape:connector-curvature="0"
         id="rect7431"
         d="m 31.036473,108.12403 h 2.772902 c 0.788577,0 1.590885,-0.31411 1.590885,0.47447 0,0.78858 -4.891826,-0.31407 -4.884296,0.47447 l 0.01812,1.8979 c 0.0075,0.78854 -0.921038,-0.63485 -0.921038,-1.42342 0,-0.78858 0.634846,-1.42342 1.423424,-1.42342 z"
         style="opacity:1;fill:#605b53;fill-opacity:1;stroke:none;stroke-width:0.1045727" />
      <path
         style="opacity:1;fill:#aea9a2;fill-opacity:1;stroke:none;stroke-width:0.1045727"
         d="m 13.730771,98.863141 h 2.772902 c 0.788577,0 1.590885,-0.31411 1.590885,0.47447 0,0.788579 -4.891826,-0.31407 -4.884296,0.47447 l 0.01812,1.897899 c 0.0075,0.78854 -0.921038,-0.63485 -0.921038,-1.42342 0,-0.788579 0.634846,-1.423419 1.423424,-1.423419 z"
         id="path7435"
         inkscape:connector-curvature="0"
         sodipodi:nodetypes="sssssss" />
      <path
         style="opacity:1;fill:#aea9a2;fill-opacity:1;stroke:none;stroke-width:0.1045727"
         d="m 22.056217,119.91062 h 2.772902 c 0.788577,0 1.590885,-0.31411 1.590885,0.47447 0,0.78858 -4.891826,-0.31407 -4.884296,0.47447 l 0.01812,1.8979 c 0.0075,0.78854 -0.921038,-0.63485 -0.921038,-1.42342 0,-0.78858 0.634846,-1.42342 1.423424,-1.42342 z"
         id="path7437"
         inkscape:connector-curvature="0"
         sodipodi:nodetypes="sssssss" />
    </g>
    <g
       id="g7880">
      <rect
         inkscape:export-ydpi="96"
         inkscape:export-xdpi="96"
         ry="0.33773944"
         y="140.04425"
         x="13.615439"
         height="27.172243"
         width="30.120384"
         id="rect7695"
         style="opacity:1;fill:#794a0a;fill-opacity:1;stroke:#000000;stroke-width:0.22350283;stroke-opacity:1" />
      <rect
         inkscape:export-ydpi="96"
         inkscape:export-xdpi="96"
         ry="0.6064328"
         y="162.29242"
         x="15.469774"
         height="5.3962951"
         width="27.973223"
         id="rect7730"
         style="opacity:1;fill:#5d3a07;fill-opacity:1;stroke:none;stroke-width:0.3095842;stroke-opacity:1" />
      <rect
         inkscape:export-ydpi="96"
         inkscape:export-xdpi="96"
         ry="0.24057126"
         y="140.61617"
         x="15.189141"
         height="2.1407044"
         width="27.599045"
         id="rect7724"
         style="opacity:1;fill:#90580b;fill-opacity:1;stroke:none;stroke-width:0.19368014;stroke-opacity:1" />
      <rect
         inkscape:export-ydpi="96"
         inkscape:export-xdpi="96"
         style="opacity:1;fill:#90580b;fill-opacity:1;stroke:none;stroke-width:0.20252289;stroke-opacity:1"
         id="rect7728"
         width="27.973223"
         height="2.3093319"
         x="14.888662"
         y="146.90398"
         ry="0.25952151" />
      <rect
         inkscape:export-ydpi="96"
         inkscape:export-xdpi="96"
         style="opacity:1;fill:#5d3a07;fill-opacity:1;stroke:none;stroke-width:0.18539105;stroke-opacity:1"
         id="rect7732"
         width="27.973223"
         height="1.9351547"
         x="15.37623"
         y="158.55064"
         ry="0.21747166" />
      <rect
         inkscape:export-ydpi="96"
         inkscape:export-xdpi="96"
         ry="0.35551491"
         y="139.0872"
         x="41.173004"
         height="28.125181"
         width="3.8046422"
         id="rect7699"
         style="opacity:1;fill:#ecc51f;fill-opacity:1;stroke:#000000;stroke-width:0.23116298;stroke-opacity:1" />
      <rect
         inkscape:export-ydpi="96"
         inkscape:export-xdpi="96"
         style="opacity:1;fill:#ecc51f;fill-opacity:1;stroke:#000000;stroke-width:0.231163;stroke-opacity:1"
         id="rect7701"
         width="3.8046424"
         height="28.125181"
         x="12.909836"
         y="139.00774"
         ry="0.35551494" />
      <path
         inkscape:export-ydpi="96"
         inkscape:export-xdpi="96"
         sodipodi:nodetypes="ccssssc"
         inkscape:connector-curvature="0"
         id="rect7705"
         d="m 12.868259,162.48322 c 0,0 4.998708,0.0104 4.998708,4.99871 0,0.23648 -0.190381,0.42687 -0.426863,0.42687 h -4.571845 c -0.236482,0 -0.426863,-0.19039 -0.426863,-0.42687 v -4.57184 c 0,-0.23648 0.190381,-0.42687 0.426863,-0.42687 z"
         style="opacity:1;fill:#ecc51f;fill-opacity:1;stroke:#000000;stroke-width:0.26458332;stroke-opacity:1" />
      <circle
         inkscape:export-ydpi="96"
         inkscape:export-xdpi="96"
         r="0.65481037"
         cy="165.57019"
         cx="14.68646"
         id="path7712"
         style="opacity:1;fill:#000000;fill-opacity:1;stroke:#000000;stroke-width:0.26458332;stroke-opacity:1" />
      <path
         inkscape:export-ydpi="96"
         inkscape:export-xdpi="96"
         style="opacity:1;fill:#ecc51f;fill-opacity:1;stroke:#000000;stroke-width:0.26458332;stroke-opacity:1"
         d="m 45.129227,162.38968 c 0,0 -4.998708,0.0104 -4.998708,4.99871 0,0.23648 0.190381,0.42687 0.426863,0.42687 h 4.571845 c 0.236482,0 0.426863,-0.19039 0.426863,-0.42687 v -4.57184 c 0,-0.23648 -0.190381,-0.42687 -0.426863,-0.42687 z"
         id="path7718"
         inkscape:connector-curvature="0"
         sodipodi:nodetypes="ccssssc" />
      <circle
         inkscape:export-ydpi="96"
         inkscape:export-xdpi="96"
         transform="scale(-1,1)"
         style="opacity:1;fill:#000000;fill-opacity:1;stroke:#000000;stroke-width:0.26458332;stroke-opacity:1"
         id="circle7720"
         cx="-43.311028"
         cy="165.47664"
         r="0.65481037" />
      <path
         inkscape:export-ydpi="96"
         inkscape:export-xdpi="96"
         inkscape:connector-curvature="0"
         id="rect7810"
         d="m 29.487085,146.50199 c -0.962275,0 -1.749161,0.76065 -1.859825,1.74677 h -2.543718 c -0.02765,0 -0.04971,0.0233 -0.04971,0.0527 v 1.74994 l -11.957158,0.0325 c -0.226403,6.3e-4 -0.408596,0.1944 -0.408049,0.43407 l 0.0085,3.55352 c 5.48e-4,0.23966 0.183139,0.43206 0.409539,0.43143 l 11.947219,-0.0325 v 2.96372 c 0,0.0293 0.02203,0.0532 0.04971,0.0532 h 2.543719 c 0.1107,0.98608 0.897577,1.74624 1.859824,1.74624 0.962244,0 1.749621,-0.76016 1.860324,-1.74624 h 2.543716 c 0.02765,0 0.04971,-0.0239 0.04971,-0.0532 v -2.98846 l 10.658462,-0.0289 c 0.226401,-6.3e-4 0.408594,-0.19441 0.408047,-0.43406 l -0.0085,-3.55352 c -5.47e-4,-0.23967 -0.183138,-0.43207 -0.409538,-0.43144 l -10.648524,0.0289 v -1.72521 c 0,-0.0294 -0.02203,-0.0527 -0.04971,-0.0527 h -2.543715 c -0.110665,-0.98614 -0.898049,-1.74678 -1.860324,-1.74678 z"
         style="opacity:0.68900003;fill:#5d3a07;fill-opacity:1;stroke:none;stroke-width:0.26709992;stroke-opacity:1" />
      <rect
         transform="matrix(0.00241694,0.99999708,-0.99999664,0.00259298,0,0)"
         ry="0.42490819"
         y="-45.166294"
         x="149.20995"
         height="33.614964"
         width="4.3401628"
         id="rect7794"
         style="opacity:1;fill:#ecc51f;fill-opacity:1;stroke:#000000;stroke-width:0.26991874;stroke-opacity:1" />
      <rect
         style="opacity:1;fill:#f4dc79;fill-opacity:1;stroke:none;stroke-width:0.19688275;stroke-opacity:1"
         id="rect7825"
         width="2.3242199"
         height="33.397251"
         x="149.58231"
         y="-44.747295"
         ry="0.42215616"
         transform="matrix(0.00448409,0.99998995,-0.99999902,0.00139762,0,0)" />
      <path
         inkscape:connector-curvature="0"
         style="opacity:1;fill:#ecc51f;fill-opacity:1;stroke:#000000;stroke-width:0.26458332;stroke-opacity:1"
         d="m 29.399597,145.65992 c -1.000514,0 -1.818671,0.7471 -1.933733,1.71566 h -2.644799 c -0.02875,0 -0.05168,0.0229 -0.05168,0.0517 v 8.96999 c 0,0.0288 0.02292,0.0522 0.05168,0.0522 h 2.644799 c 0.115101,0.96852 0.933249,1.71514 1.933733,1.71514 1.000482,0 1.819148,-0.74662 1.93425,-1.71514 h 2.644799 c 0.02875,0 0.05168,-0.0234 0.05168,-0.0522 v -8.96999 c 0,-0.0288 -0.02291,-0.0517 -0.05168,-0.0517 h -2.644799 c -0.115062,-0.96856 -0.933736,-1.71566 -1.93425,-1.71566 z"
         id="path7796" />
      <path
         inkscape:connector-curvature="0"
         style="opacity:1;fill:#000000;fill-opacity:1;stroke:#000000;stroke-width:0.10956091;stroke-opacity:1"
         d="m 29.399847,148.51316 c 0.587089,0 1.059727,0.47264 1.059727,1.05973 v 4.67891 c 0,0.58709 -0.472638,1.05972 -1.059727,1.05972 -0.587089,0 -1.059727,-0.47263 -1.059727,-1.05972 v -4.67891 c 0,-0.58709 0.472638,-1.05973 1.059727,-1.05973 z"
         id="path7798" />
      <rect
         transform="matrix(9.8516769e-4,0.99999951,-0.99997977,0.00636137,0,0)"
         ry="0.04483708"
         y="-16.434111"
         x="139.54022"
         height="3.5471122"
         width="1.1235615"
         id="rect7827"
         style="opacity:1;fill:#f4dc79;fill-opacity:1;stroke:none;stroke-width:0.04461179;stroke-opacity:1" />
      <rect
         style="opacity:1;fill:#f4dc79;fill-opacity:1;stroke:none;stroke-width:0.0446118;stroke-opacity:1"
         id="rect7831"
         width="1.1235615"
         height="3.5471122"
         x="139.7202"
         y="-44.725422"
         ry="0.04483708"
         transform="matrix(9.8516768e-4,0.99999951,-0.99997977,0.00636137,0,0)" />
      <rect
         transform="matrix(3.8845097e-4,0.99999992,-0.99986988,0.01613157,0,0)"
         ry="0.73191118"
         y="-30.219788"
         x="146.71698"
         height="1.8223853"
         width="1.4638224"
         id="rect7833"
         style="opacity:1;fill:#f4dc79;fill-opacity:1;stroke:none;stroke-width:0.03649875;stroke-opacity:1" />
      <circle
         r="1.625258"
         cy="149.93303"
         cx="29.443628"
         id="path7835"
         style="opacity:1;fill:#000000;fill-opacity:1;stroke:none;stroke-width:0.22754166;stroke-opacity:1" />
    </g>
    <rect
       inkscape:export-ydpi="96"
       inkscape:export-xdpi="96"
       ry="0.219778"
       y="149.29158"
       x="52.487652"
       height="17.68186"
       width="30.163464"
       id="rect7882"
       style="opacity:1;fill:#794a0a;fill-opacity:1;stroke:#000000;stroke-width:0.18042412;stroke-opacity:1" />
    <rect
       inkscape:export-ydpi="96"
       inkscape:export-xdpi="96"
       ry="0.6064328"
       y="162.02783"
       x="54.363525"
       height="5.3962951"
       width="27.973223"
       id="rect7884"
       style="opacity:1;fill:#5d3a07;fill-opacity:1;stroke:none;stroke-width:0.3095842;stroke-opacity:1" />
    <rect
       inkscape:export-ydpi="96"
       inkscape:export-xdpi="96"
       style="opacity:1;fill:#5d3a07;fill-opacity:1;stroke:none;stroke-width:0.18539105;stroke-opacity:1"
       id="rect7890"
       width="27.973223"
       height="1.9351547"
       x="54.269981"
       y="158.28606"
       ry="0.21747166" />
    <rect
       inkscape:export-ydpi="96"
       inkscape:export-xdpi="96"
       ry="0.22675912"
       y="149.03183"
       x="80.084457"
       height="17.939167"
       width="3.8101487"
       id="rect7892"
       style="opacity:1;fill:#ecc51f;fill-opacity:1;stroke:#000000;stroke-width:0.18475059;stroke-opacity:1" />
    <rect
       inkscape:export-ydpi="96"
       inkscape:export-xdpi="96"
       style="opacity:1;fill:#ecc51f;fill-opacity:1;stroke:#000000;stroke-width:0.18475059;stroke-opacity:1"
       id="rect7894"
       width="3.810149"
       height="17.939167"
       x="51.78038"
       y="148.98116"
       ry="0.22675914" />
    <path
       inkscape:export-ydpi="96"
       inkscape:export-xdpi="96"
       sodipodi:nodetypes="ccssssc"
       inkscape:connector-curvature="0"
       id="path7896"
       d="m 51.762009,162.21864 c 0,0 4.998708,0.0104 4.998708,4.99871 0,0.23648 -0.190381,0.42687 -0.426863,0.42687 h -4.571845 c -0.236482,0 -0.426863,-0.19039 -0.426863,-0.42687 v -4.57184 c 0,-0.23648 0.190381,-0.42687 0.426863,-0.42687 z"
       style="opacity:1;fill:#ecc51f;fill-opacity:1;stroke:#000000;stroke-width:0.26458332;stroke-opacity:1" />
    <circle
       inkscape:export-ydpi="96"
       inkscape:export-xdpi="96"
       r="0.65481037"
       cy="165.3056"
       cx="53.580208"
       id="circle7898"
       style="opacity:1;fill:#000000;fill-opacity:1;stroke:#000000;stroke-width:0.26458332;stroke-opacity:1" />
    <path
       inkscape:export-ydpi="96"
       inkscape:export-xdpi="96"
       style="opacity:1;fill:#ecc51f;fill-opacity:1;stroke:#000000;stroke-width:0.26458332;stroke-opacity:1"
       d="m 84.022977,162.1251 c 0,0 -4.998708,0.0104 -4.998708,4.99871 0,0.23648 0.190381,0.42687 0.426863,0.42687 h 4.571845 c 0.236482,0 0.426863,-0.19039 0.426863,-0.42687 v -4.57184 c 0,-0.23648 -0.190381,-0.42687 -0.426863,-0.42687 z"
       id="path7900"
       inkscape:connector-curvature="0"
       sodipodi:nodetypes="ccssssc" />
    <circle
       inkscape:export-ydpi="96"
       inkscape:export-xdpi="96"
       transform="scale(-1,1)"
       style="opacity:1;fill:#000000;fill-opacity:1;stroke:#000000;stroke-width:0.26458332;stroke-opacity:1"
       id="circle7902"
       cx="-82.204781"
       cy="165.21205"
       r="0.65481037" />
    <path
       inkscape:export-ydpi="96"
       inkscape:export-xdpi="96"
       inkscape:connector-curvature="0"
       id="path7904"
       d="m 68.380835,146.23741 c -0.962275,0 -1.749161,0.76065 -1.859825,1.74677 h -2.543718 c -0.02765,0 -0.04971,0.0233 -0.04971,0.0527 v 1.74994 l -11.957158,0.0325 c -0.226403,6.3e-4 -0.408596,0.1944 -0.408049,0.43407 l 0.0085,3.55352 c 5.48e-4,0.23966 0.183139,0.43206 0.409539,0.43143 l 11.947219,-0.0325 v 2.96372 c 0,0.0293 0.02203,0.0532 0.04971,0.0532 h 2.543719 c 0.1107,0.98608 0.897577,1.74624 1.859824,1.74624 0.962244,0 1.749621,-0.76016 1.860324,-1.74624 h 2.543716 c 0.02765,0 0.04971,-0.0239 0.04971,-0.0532 v -2.98846 l 10.658462,-0.0289 c 0.226401,-6.3e-4 0.408594,-0.19441 0.408047,-0.43406 l -0.0085,-3.55352 c -5.47e-4,-0.23967 -0.183138,-0.43207 -0.409538,-0.43144 l -10.648524,0.0289 v -1.72521 c 0,-0.0294 -0.02203,-0.0527 -0.04971,-0.0527 h -2.543715 c -0.110665,-0.98614 -0.898049,-1.74678 -1.860324,-1.74678 z"
       style="opacity:0.68900003;fill:#5d3a07;fill-opacity:1;stroke:none;stroke-width:0.26709992;stroke-opacity:1" />
    <rect
       ry="0"
       y="135.81754"
       x="51.35387"
       height="14.801196"
       width="32.445831"
       id="rect7958"
       style="opacity:1;fill:#ecc51f;fill-opacity:1;stroke:#000000;stroke-width:0.27557281;stroke-opacity:1" />
    <rect
       style="opacity:1;fill:#5d3a07;fill-opacity:1;stroke:none;stroke-width:0.23796169;stroke-opacity:1"
       id="rect7960"
       width="26.631205"
       height="13.446405"
       x="54.479225"
       y="137.17232"
       ry="0" />
    <ellipse
       style="opacity:1;fill:#e4c855;fill-opacity:1;stroke:#000000;stroke-width:0.12827027;stroke-miterlimit:4;stroke-dasharray:none;stroke-opacity:1"
       id="path7990"
       cx="67.942627"
       cy="148.23592"
       rx="13.298309"
       ry="5.1994653" />
    <ellipse
       style="opacity:1;fill:#dcba28;fill-opacity:1;stroke:#000000;stroke-width:0.2158668;stroke-miterlimit:4;stroke-dasharray:none;stroke-opacity:1"
       id="ellipse8040"
       transform="matrix(-0.9920157,0.12611441,0.75788631,0.65238665,0,0)"
       ry="2.0216081"
       rx="2.7805295"
       cy="204.91991"
       cx="85.252258" />
    <ellipse
       cx="84.825661"
       cy="204.48549"
       rx="2.7805295"
       ry="2.0216081"
       transform="matrix(-0.9920157,0.12611441,0.75788631,0.65238665,0,0)"
       id="ellipse8042"
       style="opacity:1;fill:#e4c855;fill-opacity:1;stroke:#000000;stroke-width:0.2158668;stroke-miterlimit:4;stroke-dasharray:none;stroke-opacity:1" />
    <g
       transform="matrix(-1.1237334,0.54746991,0.54746991,1.1237334,46.564223,-26.497889)"
       id="g8032">
      <ellipse
         cx="157.47122"
         cy="182.34299"
         rx="2.2244234"
         ry="1.6172863"
         transform="matrix(0.99785696,-0.06543313,-0.61952388,0.78497781,0,0)"
         id="ellipse8028"
         style="opacity:1;fill:#d1c612;fill-opacity:1;stroke:#000000;stroke-width:0.17269343;stroke-miterlimit:4;stroke-dasharray:none;stroke-opacity:1" />
      <ellipse
         style="opacity:1;fill:#f6f093;fill-opacity:1;stroke:#000000;stroke-width:0.17269343;stroke-miterlimit:4;stroke-dasharray:none;stroke-opacity:1"
         id="ellipse8030"
         transform="matrix(0.99785696,-0.06543313,-0.61952388,0.78497781,0,0)"
         ry="1.6172863"
         rx="2.2244234"
         cy="181.99545"
         cx="157.12994" />
    </g>
    <g
       id="g8026"
       transform="matrix(1.1237334,0.54746991,-0.54746991,1.1237334,89.613251,-26.998849)">
      <ellipse
         style="opacity:1;fill:#d1c612;fill-opacity:1;stroke:#000000;stroke-width:0.17269343;stroke-miterlimit:4;stroke-dasharray:none;stroke-opacity:1"
         id="ellipse8022"
         transform="matrix(0.99785696,-0.06543313,-0.61952388,0.78497781,0,0)"
         ry="1.6172863"
         rx="2.2244234"
         cy="182.34299"
         cx="157.47122" />
      <ellipse
         cx="157.12994"
         cy="181.99545"
         rx="2.2244234"
         ry="1.6172863"
         transform="matrix(0.99785696,-0.06543313,-0.61952388,0.78497781,0,0)"
         id="ellipse8024"
         style="opacity:1;fill:#f6f093;fill-opacity:1;stroke:#000000;stroke-width:0.17269343;stroke-miterlimit:4;stroke-dasharray:none;stroke-opacity:1" />
    </g>
    <g
       id="g8002"
       transform="matrix(1.1916537,-0.37744066,0.37744066,1.1916537,-45.892405,5.9500723)">
      <ellipse
         style="opacity:1;fill:#d1c612;fill-opacity:1;stroke:#000000;stroke-width:0.17269343;stroke-miterlimit:4;stroke-dasharray:none;stroke-opacity:1"
         id="ellipse7998"
         transform="matrix(0.99785696,-0.06543313,-0.61952388,0.78497781,0,0)"
         ry="1.6172863"
         rx="2.2244234"
         cy="182.34299"
         cx="157.47122" />
      <ellipse
         cx="157.12994"
         cy="181.99545"
         rx="2.2244234"
         ry="1.6172863"
         transform="matrix(0.99785696,-0.06543313,-0.61952388,0.78497781,0,0)"
         id="ellipse7996"
         style="opacity:1;fill:#f6f093;fill-opacity:1;stroke:#000000;stroke-width:0.17269343;stroke-miterlimit:4;stroke-dasharray:none;stroke-opacity:1" />
    </g>
    <ellipse
       style="opacity:1;fill:#e3d953;fill-opacity:1;stroke:#000000;stroke-width:0.2158668;stroke-miterlimit:4;stroke-dasharray:none;stroke-opacity:1"
       id="ellipse8016"
       transform="matrix(0.9920157,0.12611441,-0.75788631,0.65238665,0,0)"
       ry="2.0216081"
       rx="2.7805295"
       cy="187.38602"
       cx="204.75352" />
    <ellipse
       cx="204.32692"
       cy="186.9516"
       rx="2.7805295"
       ry="2.0216081"
       transform="matrix(0.9920157,0.12611441,-0.75788631,0.65238665,0,0)"
       id="ellipse8018"
       style="opacity:1;fill:#e3d953;fill-opacity:1;stroke:#000000;stroke-width:0.2158668;stroke-miterlimit:4;stroke-dasharray:none;stroke-opacity:1" />
    <g
       transform="matrix(1.1237334,0.54746991,-0.54746991,1.1237334,84.019204,-28.33474)"
       id="g8008">
      <ellipse
         cx="157.47122"
         cy="182.34299"
         rx="2.2244234"
         ry="1.6172863"
         transform="matrix(0.99785696,-0.06543313,-0.61952388,0.78497781,0,0)"
         id="ellipse8004"
         style="opacity:1;fill:#d1c612;fill-opacity:1;stroke:#000000;stroke-width:0.17269343;stroke-miterlimit:4;stroke-dasharray:none;stroke-opacity:1" />
      <ellipse
         style="opacity:1;fill:#f6f093;fill-opacity:1;stroke:#000000;stroke-width:0.17269343;stroke-miterlimit:4;stroke-dasharray:none;stroke-opacity:1"
         id="ellipse8006"
         transform="matrix(0.99785696,-0.06543313,-0.61952388,0.78497781,0,0)"
         ry="1.6172863"
         rx="2.2244234"
         cy="181.99545"
         cx="157.12994" />
    </g>
    <g
       id="g8038"
       transform="matrix(-1.1237334,0.54746991,0.54746991,1.1237334,52.28351,-28.33474)">
      <ellipse
         style="opacity:1;fill:#d1c612;fill-opacity:1;stroke:#000000;stroke-width:0.17269343;stroke-miterlimit:4;stroke-dasharray:none;stroke-opacity:1"
         id="ellipse8034"
         transform="matrix(0.99785696,-0.06543313,-0.61952388,0.78497781,0,0)"
         ry="1.6172863"
         rx="2.2244234"
         cy="182.34299"
         cx="157.47122" />
      <ellipse
         cx="157.12994"
         cy="181.99545"
         rx="2.2244234"
         ry="1.6172863"
         transform="matrix(0.99785696,-0.06543313,-0.61952388,0.78497781,0,0)"
         id="ellipse8036"
         style="opacity:1;fill:#f6f093;fill-opacity:1;stroke:#000000;stroke-width:0.17269343;stroke-miterlimit:4;stroke-dasharray:none;stroke-opacity:1" />
    </g>
    <ellipse
       cx="127.98685"
       cy="208.2171"
       rx="3.0133882"
       ry="1.7471629"
       transform="matrix(-0.88785334,0.46012656,0.90576683,0.42377641,0,0)"
       id="ellipse8046"
       style="opacity:1;fill:#925f17;fill-opacity:1;stroke:#000000;stroke-width:0.20891416;stroke-miterlimit:4;stroke-dasharray:none;stroke-opacity:1" />
    <ellipse
       style="opacity:1;fill:#bb9c1e;fill-opacity:1;stroke:#000000;stroke-width:0.20891416;stroke-miterlimit:4;stroke-dasharray:none;stroke-opacity:1"
       id="ellipse8048"
       transform="matrix(-0.88785334,0.46012656,0.90576683,0.42377641,0,0)"
       ry="1.7471629"
       rx="3.0133882"
       cy="207.84166"
       cx="127.52454" />
    <g
       id="g7950">
      <rect
         style="opacity:1;fill:#ecc51f;fill-opacity:1;stroke:#000000;stroke-width:0.26991874;stroke-opacity:1"
         id="rect7906"
         width="4.3401628"
         height="33.614964"
         x="149.04622"
         y="-84.06057"
         ry="0.42490819"
         transform="matrix(0.00241694,0.99999708,-0.99999664,0.00259298,0,0)" />
      <rect
         transform="matrix(0.00448409,0.99998995,-0.99999902,0.00139762,0,0)"
         ry="0.42215616"
         y="-83.642029"
         x="149.37209"
         height="33.397251"
         width="2.3242199"
         id="rect7908"
         style="opacity:1;fill:#f4dc79;fill-opacity:1;stroke:none;stroke-width:0.19688275;stroke-opacity:1" />
      <path
         id="path7910"
         d="m 68.293347,145.39534 c -1.000514,0 -1.818671,0.7471 -1.933733,1.71566 h -2.644799 c -0.02875,0 -0.05168,0.0229 -0.05168,0.0517 v 8.96999 c 0,0.0288 0.02292,0.0522 0.05168,0.0522 h 2.644799 c 0.115101,0.96852 0.933249,1.71514 1.933733,1.71514 1.000482,0 1.819148,-0.74662 1.93425,-1.71514 h 2.644799 c 0.02875,0 0.05168,-0.0234 0.05168,-0.0522 v -8.96999 c 0,-0.0288 -0.02291,-0.0517 -0.05168,-0.0517 h -2.644799 c -0.115062,-0.96856 -0.933736,-1.71566 -1.93425,-1.71566 z"
         style="opacity:1;fill:#ecc51f;fill-opacity:1;stroke:#000000;stroke-width:0.26458332;stroke-opacity:1"
         inkscape:connector-curvature="0" />
      <path
         inkscape:connector-curvature="0"
         id="path7912"
         transform="scale(0.26458333)"
         d="m 258.2832,559.5332 a 6.1427073,6.1427073 0 0 0 -6.14258,6.14258 6.1427073,6.1427073 0 0 0 1.97071,4.49805 v 11.82422 c 0,2.21892 1.78694,4.00586 4.00586,4.00586 2.21892,0 4.00586,-1.78694 4.00586,-4.00586 v -11.5293 a 6.1427073,6.1427073 0 0 0 2.30273,-4.79297 6.1427073,6.1427073 0 0 0 -6.14258,-6.14258 z"
         style="opacity:1;fill:#000000;fill-opacity:1;stroke:#000000;stroke-width:0.41408846;stroke-opacity:1" />
      <rect
         style="opacity:1;fill:#f4dc79;fill-opacity:1;stroke:none;stroke-width:0.03649875;stroke-opacity:1"
         id="rect7918"
         width="1.4638224"
         height="1.8223853"
         x="147.0799"
         y="-69.118462"
         ry="0.73191118"
         transform="matrix(3.8845097e-4,0.99999992,-0.99986988,0.01613157,0,0)" />
    </g>
    <g
       id="g8014"
       transform="matrix(1.2270472,0.23844355,-0.23844355,1.2270472,42.669238,-29.876541)">
      <ellipse
         style="opacity:1;fill:#d1c612;fill-opacity:1;stroke:#000000;stroke-width:0.17269343;stroke-miterlimit:4;stroke-dasharray:none;stroke-opacity:1"
         id="ellipse8010"
         transform="matrix(0.99785696,-0.06543313,-0.61952388,0.78497781,0,0)"
         ry="1.6172863"
         rx="2.2244234"
         cy="182.34299"
         cx="157.47122" />
      <ellipse
         cx="157.12994"
         cy="181.99545"
         rx="2.2244234"
         ry="1.6172863"
         transform="matrix(0.99785696,-0.06543313,-0.61952388,0.78497781,0,0)"
         id="ellipse8012"
         style="opacity:1;fill:#f6f093;fill-opacity:1;stroke:#000000;stroke-width:0.17269343;stroke-miterlimit:4;stroke-dasharray:none;stroke-opacity:1" />
    </g>
    <g
       transform="matrix(-1.2485749,-0.05967285,-0.05967285,1.2485749,141.61748,-15.994677)"
       id="g8056">
      <ellipse
         cx="157.47122"
         cy="182.34299"
         rx="2.2244234"
         ry="1.6172863"
         transform="matrix(0.99785696,-0.06543313,-0.61952388,0.78497781,0,0)"
         id="ellipse8052"
         style="opacity:1;fill:#d1c612;fill-opacity:1;stroke:#000000;stroke-width:0.17269343;stroke-miterlimit:4;stroke-dasharray:none;stroke-opacity:1" />
      <ellipse
         style="opacity:1;fill:#f6f093;fill-opacity:1;stroke:#000000;stroke-width:0.17269343;stroke-miterlimit:4;stroke-dasharray:none;stroke-opacity:1"
         id="ellipse8054"
         transform="matrix(0.99785696,-0.06543313,-0.61952388,0.78497781,0,0)"
         ry="1.6172863"
         rx="2.2244234"
         cy="181.99545"
         cx="157.12994" />
    </g>
    <path
       inkscape:connector-curvature="0"
       id="rect8206"
       d="M 6.7800511,7.48239 H 40.646716 V 41.349055 H 6.7800511 Z"
       style="opacity:1;fill:#fcea4a;fill-opacity:1;stroke:none;stroke-width:0.07000434"
       inkscape:export-xdpi="96"
       inkscape:export-ydpi="96" />
    <path
       sodipodi:nodetypes="ccccc"
       inkscape:connector-curvature="0"
       id="rect7335"
       d="m 6.7800509,7.48239 c 10.0490761,2.066353 21.7154941,1.437138 33.8666651,0 V 41.349055 H 6.7800509 Z"
       style="opacity:1;fill:url(#linearGradient8204);fill-opacity:1;stroke:none;stroke-width:0.07000434"
       inkscape:export-xdpi="96"
       inkscape:export-ydpi="96" />
    <g
       id="g8211"
       transform="translate(-48.947918,-0.26458334)"
       style="opacity:0.83699999"
       inkscape:export-xdpi="96"
       inkscape:export-ydpi="96">
      <path
         sodipodi:nodetypes="sssssssss"
         inkscape:connector-curvature="0"
         id="path2811"
         d="m 68.049528,24.8051 -2.834511,0.445774 c -1.361781,0.214162 -2.260427,0.529989 -3.531953,-0.0443 l -1.689683,-0.763152 c -1.271525,-0.574289 -1.003955,-2.565199 -0.03579,-3.531394 l 2.184476,-2.180058 c 0.968136,-0.966228 2.575382,-0.976754 3.531953,0.0443 l 2.339704,2.497422 c 0.956576,1.021051 1.397567,3.317232 0.03578,3.531393 z"
         style="opacity:1;fill:#fcca4a;fill-opacity:1;stroke:none;stroke-width:0.16635112" />
      <path
         style="opacity:1;fill:#fcca4a;fill-opacity:1;stroke:none;stroke-width:0.16635112"
         d="m 68.485768,24.440964 -2.834513,0.445771 c -1.36178,0.214162 -2.260427,0.52999 -3.531952,-0.0443 l -1.689684,-0.763152 c -1.271525,-0.574289 -1.003955,-2.565198 -0.03579,-3.531393 l 2.184477,-2.180059 c 0.968135,-0.966228 2.575381,-0.976753 3.531952,0.0443 l 2.339704,2.497422 c 0.956574,1.021049 1.397565,3.317229 0.03579,3.531395 z"
         id="path2815"
         inkscape:connector-curvature="0"
         sodipodi:nodetypes="sssssssss" />
      <path
         sodipodi:nodetypes="ccsssssssc"
         inkscape:connector-curvature="0"
         id="path2873"
         d="M 67.283378,23.867939 66.26862,21.86937 c 0.06319,0.124464 -1.09605,-2.108268 -1.857115,-1.533848 l -3.268238,2.466733 c -0.761065,0.574421 -0.172992,-0.973771 0.50163,-1.647019 l 1.522156,-1.519063 c 0.674675,-0.673194 1.794532,-0.680604 2.461074,0.03087 l 1.630307,1.740213 c 0.666546,0.711468 0.973827,2.311453 0.02494,2.460684 z"
         style="opacity:1;fill:#fde093;fill-opacity:1;stroke:none;stroke-width:0.11591388" />
    </g>
    <g
       style="opacity:0.83699999"
       transform="translate(-32.808334,-4.7625)"
       id="g8219"
       inkscape:export-xdpi="96"
       inkscape:export-ydpi="96">
      <path
         style="opacity:1;fill:#fcca4a;fill-opacity:1;stroke:none;stroke-width:0.16635112"
         d="m 68.049528,24.8051 -2.834511,0.445774 c -1.361781,0.214162 -2.260427,0.529989 -3.531953,-0.0443 l -1.689683,-0.763152 c -1.271525,-0.574289 -1.003955,-2.565199 -0.03579,-3.531394 l 2.184476,-2.180058 c 0.968136,-0.966228 2.575382,-0.976754 3.531953,0.0443 l 2.339704,2.497422 c 0.956576,1.021051 1.397567,3.317232 0.03578,3.531393 z"
         id="path8213"
         inkscape:connector-curvature="0"
         sodipodi:nodetypes="sssssssss" />
      <path
         sodipodi:nodetypes="sssssssss"
         inkscape:connector-curvature="0"
         id="path8215"
         d="m 68.485768,24.440964 -2.834513,0.445771 c -1.36178,0.214162 -2.260427,0.52999 -3.531952,-0.0443 l -1.689684,-0.763152 c -1.271525,-0.574289 -1.003955,-2.565198 -0.03579,-3.531393 l 2.184477,-2.180059 c 0.968135,-0.966228 2.575381,-0.976753 3.531952,0.0443 l 2.339704,2.497422 c 0.956574,1.021049 1.397565,3.317229 0.03579,3.531395 z"
         style="opacity:1;fill:#fcca4a;fill-opacity:1;stroke:none;stroke-width:0.16635112" />
      <path
         style="opacity:1;fill:#fde093;fill-opacity:1;stroke:none;stroke-width:0.11591388"
         d="M 67.283378,23.867939 66.26862,21.86937 c 0.06319,0.124464 -1.09605,-2.108268 -1.857115,-1.533848 l -3.268238,2.466733 c -0.761065,0.574421 -0.172992,-0.973771 0.50163,-1.647019 l 1.522156,-1.519063 c 0.674675,-0.673194 1.794532,-0.680604 2.461074,0.03087 l 1.630307,1.740213 c 0.666546,0.711468 0.973827,2.311453 0.02494,2.460684 z"
         id="path8217"
         inkscape:connector-curvature="0"
         sodipodi:nodetypes="ccsssssssc" />
    </g>
    <rect
       inkscape:export-ydpi="96"
       inkscape:export-xdpi="96"
       style="opacity:1;fill:#fc4a4a;fill-opacity:1;stroke:none;stroke-width:0.07000434"
       id="rect8235"
       width="33.866665"
       height="33.866665"
       x="42.763382"
       y="7.7469745" />
    <rect
       y="8.0115576"
       x="82.583176"
       height="33.866665"
       width="33.866665"
       id="rect8275"
       style="opacity:1;fill:#fc4a4a;fill-opacity:1;stroke:none;stroke-width:0.07000434"
       inkscape:export-xdpi="96"
       inkscape:export-ydpi="96" />
    <path
       style="opacity:1;fill:url(#radialGradient8305);fill-opacity:1;stroke:none;stroke-width:0.07000434"
       d="M 82.583177,8.0115577 H 116.44984 V 41.878222 H 82.583177 Z"
       id="path8295"
       inkscape:connector-curvature="0"
       inkscape:export-xdpi="96"
       inkscape:export-ydpi="96" />
    <g
       style="opacity:0.83699999"
       transform="translate(29.368749,5.8208333)"
       id="g8313"
       inkscape:export-xdpi="96"
       inkscape:export-ydpi="96">
      <path
         style="opacity:1;fill:#fcca4a;fill-opacity:1;stroke:none;stroke-width:0.16635112"
         d="m 68.049528,24.8051 -2.834511,0.445774 c -1.361781,0.214162 -2.260427,0.529989 -3.531953,-0.0443 l -1.689683,-0.763152 c -1.271525,-0.574289 -1.003955,-2.565199 -0.03579,-3.531394 l 2.184476,-2.180058 c 0.968136,-0.966228 2.575382,-0.976754 3.531953,0.0443 l 2.339704,2.497422 c 0.956576,1.021051 1.397567,3.317232 0.03578,3.531393 z"
         id="path8307"
         inkscape:connector-curvature="0"
         sodipodi:nodetypes="sssssssss" />
      <path
         sodipodi:nodetypes="sssssssss"
         inkscape:connector-curvature="0"
         id="path8309"
         d="m 68.485768,24.440964 -2.834513,0.445771 c -1.36178,0.214162 -2.260427,0.52999 -3.531952,-0.0443 l -1.689684,-0.763152 c -1.271525,-0.574289 -1.003955,-2.565198 -0.03579,-3.531393 l 2.184477,-2.180059 c 0.968135,-0.966228 2.575381,-0.976753 3.531952,0.0443 l 2.339704,2.497422 c 0.956574,1.021049 1.397565,3.317229 0.03579,3.531395 z"
         style="opacity:1;fill:#fcca4a;fill-opacity:1;stroke:none;stroke-width:0.16635112" />
      <path
         style="opacity:1;fill:#fde093;fill-opacity:1;stroke:none;stroke-width:0.11591388"
         d="M 67.283378,23.867939 66.26862,21.86937 c 0.06319,0.124464 -1.09605,-2.108268 -1.857115,-1.533848 l -3.268238,2.466733 c -0.761065,0.574421 -0.172992,-0.973771 0.50163,-1.647019 l 1.522156,-1.519063 c 0.674675,-0.673194 1.794532,-0.680604 2.461074,0.03087 l 1.630307,1.740213 c 0.666546,0.711468 0.973827,2.311453 0.02494,2.460684 z"
         id="path8311"
         inkscape:connector-curvature="0"
         sodipodi:nodetypes="ccsssssssc" />
    </g>
    <rect
       y="52.458851"
       x="11.44323"
       height="33.866665"
       width="33.866665"
       id="rect8321"
       style="opacity:0.481;fill:#fc4a4a;fill-opacity:1;stroke:none;stroke-width:0.07000434"
       inkscape:export-xdpi="96"
       inkscape:export-ydpi="96" />
    <g
       id="g1125"
       inkscape:export-xdpi="96"
       inkscape:export-ydpi="96">
      <path
         id="path8362"
         d="m -18.322393,93.671882 a 9.653472,3.2166237 0 0 0 -9.653225,3.216373 9.653472,3.2166237 0 0 0 3.845064,2.564399 h -0.394272 v 6.214716 a 12.878964,8.701804 0 0 0 -6.610142,7.58942 12.878964,8.701804 0 0 0 12.878718,8.70209 12.878964,8.701804 0 0 0 12.8787173,-8.70209 12.878964,8.701804 0 0 0 -6.7424253,-7.64916 v -6.154976 h -0.388589 a 9.653472,3.2166237 0 0 0 3.83938,-2.564399 9.653472,3.2166237 0 0 0 -9.653226,-3.216373 z"
         style="opacity:0.42300002;fill:#c2ecfe;fill-opacity:1;stroke:#000000;stroke-width:0.17123786;stroke-miterlimit:4;stroke-dasharray:none;stroke-opacity:1"
         inkscape:connector-curvature="0"
         clip-path="none" />
      <ellipse
         ry="1.5875"
         rx="6.7468748"
         cy="97.107292"
         cx="-18.25625"
         id="path8371"
         style="opacity:0.519;fill:#aad5fc;fill-opacity:0.92941176;stroke:#000000;stroke-width:0.13229166;stroke-miterlimit:4;stroke-dasharray:none;stroke-opacity:1" />
      <ellipse
         style="opacity:0.73500001;fill:#c2ecff;fill-opacity:0.42352942;stroke:#000000;stroke-width:0.1258014;stroke-miterlimit:4;stroke-dasharray:none;stroke-opacity:1"
         id="ellipse8373"
         cx="-18.25625"
         cy="105.17709"
         rx="6.0886617"
         ry="1.5907451" />
      <g
         transform="translate(-82.417704,32.279167)"
         id="g8409">
        <path
           inkscape:connector-curvature="0"
           id="path8405"
           d="m 51.431688,81.79326 c 0.532735,4.587884 6.012562,8.122129 12.596898,8.12444 6.252737,-0.0055 11.560838,-3.205058 12.48876,-7.52782 0.0074,-0.198743 0.01235,-0.397645 0.01487,-0.59662 -8.366843,3.216393 -16.733685,3.133385 -25.100528,0 z"
           clip-path="none"
           style="opacity:0.73500001;fill:#fd8a57;fill-opacity:0.96470588;stroke:none;stroke-width:0.24271074;stroke-miterlimit:4;stroke-dasharray:none;stroke-opacity:1"
           sodipodi:nodetypes="ccccc" />
        <ellipse
           style="opacity:0.73500001;fill:#fd8a57;fill-opacity:0.96470588;stroke:#000000;stroke-width:0.12311963;stroke-miterlimit:4;stroke-dasharray:none;stroke-opacity:1"
           id="ellipse8403"
           cx="64.161453"
           cy="80.619507"
           rx="12.947721"
           ry="4.3024783"
           clip-path="none" />
      </g>
    </g>
    <g
       id="g1117"
       inkscape:export-xdpi="96"
       inkscape:export-ydpi="96">
      <path
         clip-path="none"
         inkscape:connector-curvature="0"
         style="opacity:0.42300002;fill:#c2ecfe;fill-opacity:1;stroke:#000000;stroke-width:0.17123786;stroke-miterlimit:4;stroke-dasharray:none;stroke-opacity:1"
         d="m -18.454685,59.143757 a 9.653472,3.2166237 0 0 0 -9.653225,3.216373 9.653472,3.2166237 0 0 0 3.845064,2.564399 h -0.394272 v 6.214716 a 12.878964,8.701804 0 0 0 -6.610142,7.58942 12.878964,8.701804 0 0 0 12.878718,8.70209 12.878964,8.701804 0 0 0 12.8787176,-8.70209 12.878964,8.701804 0 0 0 -6.7424256,-7.64916 v -6.154976 h -0.388589 a 9.653472,3.2166237 0 0 0 3.8393803,-2.564399 9.653472,3.2166237 0 0 0 -9.6532263,-3.216373 z"
         id="path1051" />
      <ellipse
         style="opacity:0.519;fill:#aad5fc;fill-opacity:0.92941176;stroke:#000000;stroke-width:0.13229166;stroke-miterlimit:4;stroke-dasharray:none;stroke-opacity:1"
         id="ellipse1053"
         cx="-18.388542"
         cy="62.579166"
         rx="6.7468748"
         ry="1.5875" />
      <ellipse
         ry="1.5907451"
         rx="6.0886617"
         cy="70.648972"
         cx="-18.388542"
         id="ellipse1055"
         style="opacity:0.73500001;fill:#c2ecff;fill-opacity:0.42352941;stroke:#000000;stroke-width:0.1258014;stroke-miterlimit:4;stroke-dasharray:none;stroke-opacity:1" />
      <path
         inkscape:connector-curvature="0"
         id="path1057"
         d="m -31.118308,79.544302 c 0.532735,4.587884 6.012562,8.122129 12.596898,8.12444 6.252737,-0.0055 11.560838,-3.205058 12.48876,-7.52782 0.0074,-0.198743 0.01235,-0.397645 0.01487,-0.59662 -8.366843,3.216393 -16.733685,3.133385 -25.100528,0 z"
         clip-path="none"
         style="opacity:0.73500001;fill:#c457fd;fill-opacity:0.96470588;stroke:none;stroke-width:0.24271074;stroke-miterlimit:4;stroke-dasharray:none;stroke-opacity:1"
         sodipodi:nodetypes="ccccc" />
      <ellipse
         style="opacity:0.73500001;fill:#c457fd;fill-opacity:0.96470588;stroke:#000000;stroke-width:0.12311963;stroke-miterlimit:4;stroke-dasharray:none;stroke-opacity:1"
         id="ellipse1059"
         cx="-18.388542"
         cy="78.370552"
         rx="12.947721"
         ry="4.3024783"
         clip-path="none" />
      <path
         id="path1065"
         d="m -18.454685,59.143757 a 9.653472,3.2166237 0 0 0 -9.653225,3.216373 9.653472,3.2166237 0 0 0 3.845064,2.564399 h -0.394272 v 6.214716 a 12.878964,8.701804 0 0 0 -6.610142,7.58942 12.878964,8.701804 0 0 0 12.878718,8.70209 12.878964,8.701804 0 0 0 12.8787176,-8.70209 12.878964,8.701804 0 0 0 -6.7424256,-7.64916 v -6.154976 h -0.388589 a 9.653472,3.2166237 0 0 0 3.8393803,-2.564399 9.653472,3.2166237 0 0 0 -9.6532263,-3.216373 z"
         style="opacity:0.42300002;fill:#c2ecfe;fill-opacity:1;stroke:#000000;stroke-width:0.17123786;stroke-miterlimit:4;stroke-dasharray:none;stroke-opacity:1"
         inkscape:connector-curvature="0"
         clip-path="none" />
      <ellipse
         ry="1.5875"
         rx="6.7468748"
         cy="62.579166"
         cx="-18.388542"
         id="ellipse1067"
         style="opacity:0.519;fill:#aad5fc;fill-opacity:0.92941176;stroke:#000000;stroke-width:0.13229166;stroke-miterlimit:4;stroke-dasharray:none;stroke-opacity:1" />
      <ellipse
         style="opacity:0.73500001;fill:#c2ecff;fill-opacity:0.42352941;stroke:#000000;stroke-width:0.1258014;stroke-miterlimit:4;stroke-dasharray:none;stroke-opacity:1"
         id="ellipse1069"
         cx="-18.388542"
         cy="70.648972"
         rx="6.0886617"
         ry="1.5907451" />
      <path
         sodipodi:nodetypes="ccccc"
         style="opacity:0.73500001;fill:#575ffd;fill-opacity:0.96470588;stroke:none;stroke-width:0.24271074;stroke-miterlimit:4;stroke-dasharray:none;stroke-opacity:1"
         clip-path="none"
         d="m -31.118308,79.544302 c 0.532735,4.587884 6.012562,8.122129 12.596898,8.12444 6.252737,-0.0055 11.560838,-3.205058 12.48876,-7.52782 0.0074,-0.198743 0.01235,-0.397645 0.01487,-0.59662 -8.366843,3.216393 -16.733685,3.133385 -25.100528,0 z"
         id="path1071"
         inkscape:connector-curvature="0" />
      <ellipse
         clip-path="none"
         ry="4.3024783"
         rx="12.947721"
         cy="78.370552"
         cx="-18.388542"
         id="ellipse1073"
         style="opacity:0.73500001;fill:#575ffd;fill-opacity:0.96470588;stroke:#000000;stroke-width:0.12311963;stroke-miterlimit:4;stroke-dasharray:none;stroke-opacity:1" />
    </g>
    <g
       id="g1105"
       inkscape:export-xdpi="96"
       inkscape:export-ydpi="96">
      <path
         id="path1075"
         d="m -19.116143,18.13334 a 9.653472,3.2166237 0 0 0 -9.653225,3.216373 9.653472,3.2166237 0 0 0 3.845064,2.564399 h -0.394272 v 6.214716 a 12.878964,8.701804 0 0 0 -6.610142,7.58942 12.878964,8.701804 0 0 0 12.878718,8.70209 12.878964,8.701804 0 0 0 12.8787173,-8.70209 12.878964,8.701804 0 0 0 -6.7424253,-7.64916 v -6.154976 h -0.388589 a 9.653472,3.2166237 0 0 0 3.83938,-2.564399 9.653472,3.2166237 0 0 0 -9.653226,-3.216373 z"
         style="opacity:0.42300002;fill:#c2ecfe;fill-opacity:1;stroke:#000000;stroke-width:0.17123786;stroke-miterlimit:4;stroke-dasharray:none;stroke-opacity:1"
         inkscape:connector-curvature="0"
         clip-path="none" />
      <ellipse
         ry="1.5875"
         rx="6.7468748"
         cy="21.56875"
         cx="-19.050001"
         id="ellipse1077"
         style="opacity:0.519;fill:#aad5fc;fill-opacity:0.92941176;stroke:#000000;stroke-width:0.13229166;stroke-miterlimit:4;stroke-dasharray:none;stroke-opacity:1" />
      <ellipse
         style="opacity:0.73500001;fill:#c2ecff;fill-opacity:0.42352941;stroke:#000000;stroke-width:0.1258014;stroke-miterlimit:4;stroke-dasharray:none;stroke-opacity:1"
         id="ellipse1079"
         cx="-19.050001"
         cy="29.638556"
         rx="6.0886617"
         ry="1.5907451" />
      <path
         sodipodi:nodetypes="ccccc"
         style="opacity:0.73500001;fill:#c457fd;fill-opacity:0.96470588;stroke:none;stroke-width:0.24271074;stroke-miterlimit:4;stroke-dasharray:none;stroke-opacity:1"
         clip-path="none"
         d="m -31.779766,38.533885 c 0.532735,4.587884 6.012562,8.122129 12.596898,8.12444 6.252737,-0.0055 11.5608377,-3.205058 12.4887597,-7.52782 0.0074,-0.198743 0.01235,-0.397645 0.01487,-0.59662 -8.3668427,3.216393 -16.7336847,3.133385 -25.1005277,0 z"
         id="path1081"
         inkscape:connector-curvature="0" />
      <ellipse
         clip-path="none"
         ry="4.3024783"
         rx="12.947721"
         cy="37.360134"
         cx="-19.050001"
         id="ellipse1083"
         style="opacity:0.73500001;fill:#c457fd;fill-opacity:0.96470588;stroke:#000000;stroke-width:0.12311963;stroke-miterlimit:4;stroke-dasharray:none;stroke-opacity:1" />
      <path
         clip-path="none"
         inkscape:connector-curvature="0"
         style="opacity:0.42300002;fill:#c2ecfe;fill-opacity:1;stroke:#000000;stroke-width:0.17123786;stroke-miterlimit:4;stroke-dasharray:none;stroke-opacity:1"
         d="m -19.116143,18.13334 a 9.653472,3.2166237 0 0 0 -9.653225,3.216373 9.653472,3.2166237 0 0 0 3.845064,2.564399 h -0.394272 v 6.214716 a 12.878964,8.701804 0 0 0 -6.610142,7.58942 12.878964,8.701804 0 0 0 12.878718,8.70209 12.878964,8.701804 0 0 0 12.8787173,-8.70209 12.878964,8.701804 0 0 0 -6.7424253,-7.64916 v -6.154976 h -0.388589 a 9.653472,3.2166237 0 0 0 3.83938,-2.564399 9.653472,3.2166237 0 0 0 -9.653226,-3.216373 z"
         id="path1085" />
      <ellipse
         style="opacity:0.519;fill:#aad5fc;fill-opacity:0.92941176;stroke:#000000;stroke-width:0.13229166;stroke-miterlimit:4;stroke-dasharray:none;stroke-opacity:1"
         id="ellipse1087"
         cx="-19.050001"
         cy="21.56875"
         rx="6.7468748"
         ry="1.5875" />
      <ellipse
         ry="1.5907451"
         rx="6.0886617"
         cy="29.638556"
         cx="-19.050001"
         id="ellipse1089"
         style="opacity:0.73500001;fill:#c2ecff;fill-opacity:0.42352941;stroke:#000000;stroke-width:0.1258014;stroke-miterlimit:4;stroke-dasharray:none;stroke-opacity:1" />
      <path
         inkscape:connector-curvature="0"
         id="path1091"
         d="m -31.779766,38.533885 c 0.532735,4.587884 6.012562,8.122129 12.596898,8.12444 6.252737,-0.0055 11.5608377,-3.205058 12.4887597,-7.52782 0.0074,-0.198743 0.01235,-0.397645 0.01487,-0.59662 -8.3668427,3.216393 -16.7336847,3.133385 -25.1005277,0 z"
         clip-path="none"
         style="opacity:0.73500001;fill:#67fd57;fill-opacity:0.96470588;stroke:none;stroke-width:0.24271074;stroke-miterlimit:4;stroke-dasharray:none;stroke-opacity:1"
         sodipodi:nodetypes="ccccc" />
      <ellipse
         style="opacity:0.73500001;fill:#67fd57;fill-opacity:0.96470588;stroke:#000000;stroke-width:0.12311963;stroke-miterlimit:4;stroke-dasharray:none;stroke-opacity:1"
         id="ellipse1093"
         cx="-19.050001"
         cy="37.360134"
         rx="12.947721"
         ry="4.3024783"
         clip-path="none" />
    </g>
  </g>
</svg>
